"Fcilty_typ","State","Fcilty_nam","Shp_num_an","Country","Street_add","Locality","Postcode","Hrs_of_bus","Fcilty_typ_2","Xcoord","Ycoord","uuid","result","Gluten","Rapide","Boulanger"
"MO","","Bercy Village","Boulangerie 1","France","41 Cour Saint-Emilion","Paris","75011","Lundi au Samedi 09:00 - 17:00","","2.385992","48.832686","1","","YES","YES","YES"
"MO","","Petits Carreaux","Boulangerie 3","France","16 Rue des Petits Carreaux","Paris","75002","HORAIRE","01 42 33 76 48","2.385994","48.832689","3","","YES","YES","YES"
"MO","","Rue Monge","Boulangerie 2","France","85 Boulevard Malesherbes","Paris","75008","HORAIRE","01 45 22 70 30","2.316405","48.877691","2","","YES","YES","YES"
