Fcilty_typ;uuid;Fcilty_nam;Street_add;Postcode;City;State;Country;Address_comp;Hrs;Day_off;Fcilty_ctc;Fcilty_email;Ycoord;Xcoord;Gluten;Restaurant;Rapide
MO;1;Vendôme;33 rue Danielle Casanova;75001;Paris;;France;;7h - 20h30;Dimanche;01 42 97 59 29;vendome@maison-kayser.com;48.8681504;2.3307903;YES;YES;YES
MO;2;Louvre - Palais Royal;4 rue de l'Echelle;75001;Paris;;France;;7h - 20h30;;01 40 15 01 31;echelle@maison-kayser.com;48.8640382;2.3343753;;YES;YES
MO;3;Bourse;5 place de la Bourse;75002;Paris;;France;;;;;bourse@maison-kayser.com;48.8686546;2.3413285;;;
MO;4;Petits Carreaux;16 rue des Petits carreaux;75002;Paris;;France;;7h - 20h;Dimanche;01 42 33 76 48;petitscarreaux@maison-kayser.com;48.8670096;2.3473739;;;
MO;5;8 rue Monge;8 Rue Monge;75005;Paris;;France;;6h30 - 20h30;Mardi;01 44 07 01 42;8monge@maison-kayser.com;48.8491745;2.3494125;;;
MO;6;14 rue Monge;14 Rue Monge;75005;Paris;;France;;8h - 20h15;Lundi;01 44 07 17 81;14monge@maison-kayser.com;48.8489305;2.3498309;;;
MO;7;Assas;87 rue d'assas;75006;Paris;;France;;7h - 20h;Dimanche;01 43 54 92 31;assas@maison-kayser.com;48.8421196;2.3353049;;;
MO;8;Odéon;10 rue de l'ancienne comédie;75006;Paris;;France;;7h - 20h30;Dimanche;01 43 25 71 60;odeon@maison-kayser.com;48.8532706;2.3382961;;;
MO;9;Duroc;1 Bd du Montparnasse;75006;Paris;;France;;7h - 20h30;Dimanche;01 47 83 75 39;duroc@maison-kayser.com;48.8466677;2.3170022;;;
MO;10;Bac;18 rue du Bac;75007;Paris;;France;;7h - 20h30;Lundi;01 42 61 27 63;bac@maison-kayser.com;48.858214;2.3283503;;;
MO;11;Malesherbes;85 Bd Malesherbes;75008;Paris;;France;;7h - 20h15;Dimanche;01 45 22 70 30;malesherbes@maison-kayser.com;48.8776136;2.3159763;;;
MO;12;Bercy Village;41 cour saint emilion;75012;Paris;;France;;7h - 21h;;01 43 46 08 89;bercy@maison-kayser.com;48.832743;2.386048;;;
MO;13;Port Tolbiac;77 quai panhard et levassor;75013;Paris;;France;;7h - 20h;Dimanche;01 56 61 11 06;bibliotheque@maison-kayser.com;48.8311333;2.3811479;;;
MO;14;Montparnasse;27 rue du départ ;75014;Paris;;France;;6h15 - 20h15;Dimanche;01 43 270841;montparnasse@maison-kayser.com;48.8415796;2.3224551;;;
MO;15;Commerce;79 rue du commerce;75015;Paris;;France;;7h-20h30;Dimanche;01 44 19 88 54;79commerce@maison-kayser.com;48.844763;2.2943003;;;
MO;16;Beaugrenelle;12 Rue Linois;75015;Paris;;France;;"10h - 21h Jeudi : 10h - 22h";Dimanche;01 45 71 06 36 ;beaugrenelle@maison-kayser.com;48.8488673;2.2818659;;;
MO;17;Mozart;79 avenue Mozart;75016;Paris;;France;;7h-20h;Dimanche;01 42 88 03 29;mozart@maison-kayser.com;48.8529838;2.2687499;;;
MO;18;Etoile;19 avenue des Ternes;75017;Paris;;France;;7h-20h15;Dimanche;01 43 80 23 28;ternes@maison-kayser.com;48.8778971;2.2957869;;;
MO;19;Levallois Trebois;19 rue Trébois;92100;Levallois-Perret;;France;;7h-20h;Dimanche après-midi et Lundi;01 40 87 15 16;levallois@maison-kayser.com;48.8907386;2.2899243;;;
MO;20;Levallois Libération;5 Place de la Libération;92100;Levallois-Perret;;France;;7h-20h;Dimanche;01 47 58 5049;levallois.liberation@maison-kayser.com;48.8934951;2.2770772;;;
MO;21;Saint Germain en Laye;8 Rue de Pologne;78100;St Germain en Laye;;France;;7h30-20h;Dimanche après-midi et Lundi;01 34 51 03 06;stgermain@maison-kayser.com;48.8970517;2.0903456;;;
MO;22;Orly Aéroport;Aerogare Orly ouest - Hall 4;94546;Orly;;France;;5h30- 21h30;;01 74 22 12 65;362004@relay.fr;48.728327;2.359486;;;
MO;23;Avignon TGV;Gare avignon TGV - Place de l'Europe;84000;Avignon;;France;;"5h30 - 21h du lundi au vendredi - samedi 6h - 21h - dimanche 7h-21h30";;04 32 76 34 74;342733@relay.fr;43.921433;4.785841;;;
MO;24;Mention Monti;Hameau de Monti, route de Sospel;06500;Menton;;France;;6h30- 19h;;04 93 96 59 77;ekmenton@gmail.com;43.794801;7.490127;;;
MO;25;Menton Bioves;1 Rue Partouneaux;06500;Menton;;France;;7h - 19h;Dimanche à partir de 12h30;04 93 28 25 81;ekmenton@gmail.com;43.7747976;7.4968324;;;
MO;26;Mention Marché Couvert;Quai de Mont Léon - Halles Municipales - Marché couvert;06500;Menton;;France;;7h15- 13h15;Lundi;04 93 28 00 11;ekmenton@gmail.com;43.778841;7.505657;;;
MO;27;Beausoleil;2 rue du Marché, 2  Avenue du Général de Gaulle;6240;Beausoleil;;France;;7h- 20h;;04 93 78 46 68;beausoleil@maison-kayser.com;43.7429342;7.4264905;;;
MO;28;Lyon Opéra;15 Place Louis Pradel;69001;Lyon;;France;;6h-20h;Dimanche;04 78 29 96 99;fournildelopera@gmail.com;45.7684139;4.8361341;;;
MO;29;Lyon Vitton;27  Rue Ney;69006;Lyon;;France;;7h-20h;Dimanche;04 72 37 00 32;fournildelopera@gmail.com;45.7695794;4.8552883;;;
MO;30;Lyon L'Epiaison;1 avenue Adolphe Max;69005;Lyon;;France;;6h-20h;Dimanche;04 78 37 46 36;fournildelopera@gmail.com;45.7595704;4.8274402;;;
MO;31;Takanawa Flagship store;1-4-21 Takanawa, Minato-ku;108-0074;Tokyo;;Japon;;8:00-20:00;New Year's day;81-3-5420-9683;;35.6435388;139.7359649;;;
MO;32;Coredo Nihonbashi;B1F COREDO Nihonbashi, 1-4-1 Nihonbashi, Chuo-ku;103-0022;Tokyo;;Japon;;7:00-20:00;;81-3-3516-0030;;35.6812197;139.7745389;;;
MO;33;Ikebukuro Sunshine;1F Sunshine City Alpa, 3-1-2 Higashi-Ikebukuro, Toshima-ku ;170-8630;Tokyo;;Japon;;8:00-21:00;;81-3-3980-8880;;35.729399;139.718783;;;
MO;34;Kagurazaka;1F Osaki Bldg., 41 Tansu-cho, Shinjuku-ku;162-0833;Tokyo;;Japon;;8:00-20:00;New Year's day;81-3-6457-5678;;35.7015252;139.7092071;;;
MO;35;Tokyo Midtown;B1F Tokyo Midtown Galleria, 9-7-4 Akasaka, Minato-ku;107-6290;Tokyo;;Japon;;11:00-21:00;;81-3-6804-6285;;35.6661554;139.7301065;;;
MO;36;Gotannda;1F Park Tower Grand Sky, 2-10-1 Higashi-Gotanda, Shinagawa-ku;141-0022;Tokyo;;Japon;;8:00-20:00;New Year's day;81-3-6450-3705;;35.624295;139.7272065;;;
MO;37;Marunouchi;1F Iiyo, 1-4-1 Marunouchi, Chiyoda-ku;100-0005;Tokyo;;Japon;;8:00-23:00;;81-3-6269-9411;;35.684345;139.764875;;;
MO;38;Nagoya;1F Nagoya Central Garden, 2-1-20 Takami, Chigusa-ku, Nagoya-shi;464-0073;Aichi;;Japon;;9:00-20:00;New Year's day;81-52-757-3188;;35.1707246;136.9439503;;;
MO;39;Daimaru Fukuoka;B2F Daimaru Fukuoka Tenjin, 1-4-1 Tenjin, Chuo-ku, Fukuoka-shi;810-8717;Fukuoka;;Japon;;10:00-20:00;;81-92-718-3058;;33.588682;130.401136;;;
MO;40;Izumi Park Town TAPIO;1F Izumi Park Town TAPIO, 6 Teraoka, Izumi-ku, Sendai-shi;981-3287;Miyagi;;Japon;;10:00-20:00;;81-22-355-6755;;38.3419967;140.8283525;;;
MO;41;Matsuya Ginza;B1F Matsuya Ginza, 3-6-1 Ginza, Chuo-ku;104-8130;Tokyo;;Japon;;10:00-20:00;;81-3-3567-1211;;35.6722557;139.7666978;;;
MO;42;Nihonbashi Takashimaya;B1F Nihonbashi Takashimaya, 2-4-1 Nihonbashi, Chuo-ku;103-0027;Tokyo;;Japon;;10:00-20:00;;81-3-.3211-4111;;35.6806688;139.7736971;;;
MO;43;Daimaru Tokyo;B1F Daimaru Tokyo, 1-9-1 Marunouchi, Chiyoda-ku;100-0005;Tokyo;;Japon;;10:00-20:00;;81-3-3201-5120;;35.6817879;139.7667614;;;
MO;44;Nagoya Takashimaya;B2F Nagoya Takashimaya, 1-1-4 Meieki, Nakamura-ku, Nagoya-shi;450-6001;Aichi;;Japon;;10:00-20:00;;81-52-566-8105;;35.170711;136.8825448;;;
MO;45;Seibu Ikebukuro;B1F Seibu Ikebukuro, 1-28-1 Minami-Ikeburkuro, Toshima-ku;171-0022;Tokyo;;Japon;;10:00-21:00;;81-3-5949-5011;;35.729088;139.711647;;;
MO;46;Sogo Yokohama;B2F Sogo Yokohama, 1-18-1 Takashima, Nishi-ku, Yokohama-shi;220-0011;Kanagawa;;Japon;;10:00-20:00;;81-45-465-2111;;35.4634906;139.6254969;;;
MO;47;Sendai Mitsukoshi;B1F Sendai Mitsukoshi, 4-8-15 Ichiban-cho, Aoba-ku, Sendai-shi;980-8543;Miyagi;;Japon;;10:00-19:00;Wednesdays;81-22-225-7111;;38.2651237;140.8710669;;;
MO;48;Pan Pacific Hotel;B3F Pan Pacific Hotel, 2-3-7 Minato-mirai, Nishi-ku, Yokohama-shi;220-8543;Kanagawa;;Japon;;;;81-45-683-6110;;35.4587032;139.6335253;;;
MO;49;Lazona Kawasaki;1F LAZONA Kawasaki, 72-1 Horikawa-cho, Saiwai-ku, Kawasaki-shi;212-0013;Kanagawa;;Japon;;7:00-21:00;;81-44-874-8388;;35.5325417;139.6967571;;;
MO;50;Hiroo Plaza;1F Hiroo Plaza, 5-6-6 Hiroo, Shibuya-ku;150-0012;Tokyo;;Japon;;10:00-21:00;;81-3-6721-9011;;35.6503181;139.7218521;;;
MO;51;bono Sagamioono;2F bono Sagamiono, 3-2 Sagamiono, Minami-ku, Sagamihara-shi;252-0303;Kanagawa;;Japon;;10:00-21:00;;81-42-705-8481;;35.5334411;139.437333;;;
MO;52;Abeno Harumasu;1F Abeno Harukas Tower Bldg., 1-1-43 Abenosuji, Abeno-ku, Osaka-shi;545-8545;Osaka;;Japon;;10:00-21:00;;81-6-6654-6190;;34.6457766;135.5142488;;;
MO;53;Kintetsu Shin-Honten;B2 Floor, 1-1-43 Abenosuji Abeno-ku Osaka-shi Osaka-hu ;545-8545;Osaka;;Japon;;10:00-21:00;;81-6-6654-6190;;34.645805;135.513405;;;
MO;54;Toranomon;Garden house 2nd floor, 23 Toranomon 1 cho-me, Minatoku, Tokyo ;;Tokyo;;Japon;;;;;;35.6684669;139.7494999;;;
MO;55;Denenchofu;1F Tokyu Square Garden Site Annex, 2-62-3 Denenchofu, Ota-ku;145-0071;Tokyo;;Japon;;7:30-21:00;;81-3-3722-5093;;35.5974453;139.6672728;;;
MO;56;Tama Plaza;B1F Tokyu Department Store Tama Palaza, 1-7 Utsukushigaoka, Aoba-ku, Yokohama-shi;225-0002;Kanagawa;;Japon;;10:00-20:00;;81-45-903-2743;;35.5785681;139.5578273;;;
MO;57;Jiyugaoka;1F Fullel With Jiyugaoka, 1-6-9 Jiyugaoka, Meguro-ku;152-0035;Tokyo;;Japon;;10:00-22:00;;81-3-6421-4850;;35.6077217;139.670183;;;
MO;58;Shinjuku Takashimaya;B1F Shinjuku Takashimaya, 5-24-2 Sendagaya, Shibuya-ku;151-0051;Tokyo;;Japon;;10:00-20:00;;81-3-3358-0904;;35.6859688;139.7024831;;;
MO;59;Scotts Square;6 Scotts Road, Scotts Square #B1-09;228209;Singapore;;Singapour;;10:00-22:00;;65 66 36 36 72;;1.306977;103.832886;;;
MO;60;Weelock Place;501 Orchard Road, B2-01;238880;Singapore;;Singapour;;;;65 62 35 45 68;;1.3047411;103.8305926;;;
MO;61;Grandstand;200 Turf Club Road, #01-11 The Grandstand;287994;Singapore;;Singapour;;;;65-6468-7172;;1.339116;103.792798;;;
MO;62;Harbour City;Ocean Terminal, Ground Floor, Shop 14-15;;Komloon;;Hong Kong;;10:00-10:00;; 852 2736 2884;contact@maison-kayser.com.hk;22.2965265;114.167764;;;
MO;63;Happy Valley;60 Ventris road;;Happy Valley;;Hong Kong;;7:30-9:45;;852 3107 0008;contact@maison-kayser.com.hk;22.270285;114.18531;;;
MO;64;Caine Road;38 Caine Road;;Mid-levels;;Hong Kong;;7:30-9:30;;852 2178 2566;contact@maison-kayser.com.hk;22.2808136;114.1527046;;;
MO;65;248 QRE;G/F, 248 Queen's Road East;;Wan Chain;;Hong Kong;;;;;;22.30009;114.172475;;;
MO;66;City Mall Dora;;;Beyrouth;;Liban;;;;;;33.897135;35.564203;;;
MO;67;Downtown;Place de l'Etoile;;Beyrouth;;Liban;;;;;;33.896674;35.504422;;;
MO;68;UES 3rd@74th;1292 Third Avenue (bet. 74th and 75th St);10021;New York;NY;USA;;7:00AM to 11:00PM;; +1.212.744.3100;;40.7712179;-73.9595471;;;
MO;69;Flatiron;921 Broadway (21st St);10010;New York;NY;USA;;;;;;40.7401597;-73.9897851;;;
MO;70;Bryan Park;8 W, 40th St;10018;New York;NY;USA;;;;;;40.7522778;-73.9826202;;;
MO;71;Columbus Circle;1800 Broadway;10019;New York;NY;USA;;;;;;40.7674767;-73.9813421;;;
MO;72;UES 3rd@87th;1535 Third Av (Bw 86th & 87th);10075;New York;NY;USA;;;;;;40.7791624;-73.9537083;;;
MO;73;Upper West Side;2161 Broadway (Bw 76th & 77th);10024;New York;NY;USA;;;;;;40.782167;-73.981458;;;
MO;74;Tanger;Rue des Amoureux;;Tanger;;Maroc;;7:00AM to 11:00PM;; +212.539.331.683;eric.kayser.tanger@gmail.com ;35.7632743;-5.8336522;;;
MO;75;Dakar;3 Boulevard de la République;1262;Dakar;;Sénégal;;;; +221.33.872.8182;;14.6654332;-17.4362716;;;
MO;76;Kinshasa;208 Avenue de l'Equateur;;Kinshassa;;RDC;;07:00 - 19:00;;;info@maison-kayser.cd;-4.3362134;15.2683971;;;
MO;77;Dubai Mall;Doha Road - Lower Level;;Dubai;;Emirats;;;;;;25.196356;55.278059;;;
MO;78;Dubai Mall - Galeries Lafayette;Doha Road - Lower Level;;Dubai;;Emirats;;;;;;25.195975;55.2785525;;;
MO;79;Abu Dhabi;Abu Dhabi Mall - 1st Floorr;;Abu Dhabi;;Emirats;;;;;;24.496187;54.383984;;;
MO;80;Amoreiras Plaza;Rue Silva Calvalho 321, Loja C;1250-252;Lisbonne;;Portugal;;7:30AM to 8:30PM;December 25th and January 1st.; +351.211.927.894;contacto@erickayser.pt;38.7224572;-9.1605238;;;
MO;81;CARMO;Rua do Carmo, 70;1200-094;Lisbonne;;Portugal;;7:30AM to 8:30PM;December 25th and January 1st.; +351.211.927.894;contacto@erickayser.pt;38.7121976;-9.1395274;;;
MO;82;CORTE INGLES;Shopping Shop Corte Ingles, Avenida Antonio Augusto de Aguiar 31;1069-413;Lisbonne;;Portugal;;;December 25th and January 1st.;;contacto@erickayser.pt;38.733353;-9.153786;;;
MO;83;CASCAIS;Cascais shopping center;;Cascais;;Portugal;;;December 25th and January 1st.;;;38.701494;-9.418092;;;
MO;84;ALMADA;Almada Shopping Center;;Lisbonne;;Portugal;;;December 25th and January 1st.;;;38.659553;-9.174964;;;
MO;85;Breez Taipei Station;1F, No.3, Bei-Ping W. Rd., Taipei;100;Taipei City;;Taiwan;;10:00-22:00;; +886.2.6632.8999;mk@breeze.com.tw;25.046778;121.517712;;;
MO;86;63 Tower;50 YEOUIDO, YEONGDAUNGP-GU;;Seoul;;Corée du Sud;;;; +82.2.789.5687;;37.519379;126.940209;;;
MO;87;Plaza Hotel Arcade;23 Taepyeongno 2 ga;;Seoul;;Corée du Sud;;;; +82.2.310.7500;;37.564667;126.977837;;;
MO;88;Galleria West B1;494 Apguejeong, Apguejeong-Gu;;Seoul;;Corée du Sud;;;;;;37.5284659;127.0400798;;;
MO;89;Augusto Leguia;Augusto Leguia Norte n 34 - Las Condes;;Santiago;;Chili;;;;;;-33.4169006;-70.5973488;;;
MO;90;Mall Vivo;Mall Vivo - Av. Los Trapenses con Jose Alcalde Delano;;Santiago;;Chili;;;;;;-33.42336;-70.609898;;;
MO;91;Rockwell Centre;Concourse Level, Rustan's Supercenter Inc., Rockwell Powerplant Mall, J.P. Rizal Makati City.;;Manila;;Philippines;;;;;;14.565458;121.036439;;;
MO;92;Promenade;F&B-L11, Lower Level, Promenade, Greenhills Shopping Center, Ortigas Avenue, San Juan, Metro Manila ;;;;Philippines;;;;;;14.601968;121.049672;;;
MO;93;Rustan's Makati;Ground Floor Rustan's Building Ayala Ave. Center Makati ;;;;Philippines;;;;;;14.552261;121.026973;;;
MO;94;Plaza Senayan;Jl. Asia Afrika No.8, Gelora Bung Karno - Senayan;10270;Jakarta;;Indon_sie;;10:00 AM - 10:00PM;;;;-6.218597;106.801767;;;
MO;95;Reforma;Paseo de la Reforma;6600;Mexico City, DF;;Mexique;;;;;;19.4285529;-99.1655926;;;
MO;96;Aeropuerto T2;Aeropuerto Internacional de Mexico;;Mexico City, DF;;Mexique;;;;;;19.420339;-99.077266;;;
MO;97;PERISUR;Centro comercial de Perisur, Anillo periferico sur 4690, local 371, segundo piso, Col. Jardines del pedregal de San Angel, Del. Coyoacan;4500;Mexico City, DF;;Mexique;;;;;;19.3041265;-99.1900742;;;
MO;98;La Marsa;2 Avenue de l'Indépendance;2070;Tunis - La Marsa;;Tunisie;;;;;;36.8767145;10.326725;;;
MO;99;El Nogal;86 Calle 81;;Bogota;;Colombie;;;;;;4.714754;-74.113504;;;
MO;100;Aeon Mall - Small;#132,Street Samdach Sothearos, Sangkat Tonle Bassac, Khan Chamkarmon ;;Phnom Penh;;Cambodge;;;;;;11.5491629;104.9319445;;;
MO;101;White Mansion;White Mansion Hotel, #26, street 240 (corner street 51) ;;Phnom Penh;;Cambodge;;;;;;11.55868;104.925055;;;
MO;102;Aeon Mall - Big;;;Phnom Penh;;Cambodge;;;;;;11.548046;104.933173;;;
