<?xml version="1.0" encoding="utf-8"?>
<!-- Generator: Adobe Illustrator 16.0.4, SVG Export Plug-In . SVG Version: 6.00 Build 0)  -->
<!DOCTYPE svg PUBLIC "-//W3C//DTD SVG 1.1//EN" "http://www.w3.org/Graphics/SVG/1.1/DTD/svg11.dtd">
<svg version="1.1" id="Calque_1" xmlns="http://www.w3.org/2000/svg" xmlns:xlink="http://www.w3.org/1999/xlink" x="0px" y="0px"
	 width="113.775px" height="113.775px" viewBox="0 0 113.775 113.775" enable-background="new 0 0 113.775 113.775"
	 xml:space="preserve">
<g>
	<defs>
		<rect id="SVGID_1_" x="-1146.116" width="289.242" height="372.232"/>
	</defs>
	<clipPath id="SVGID_2_">
		<use xlink:href="#SVGID_1_"  overflow="visible"/>
	</clipPath>
	<path clip-path="url(#SVGID_2_)" fill="#776C68" d="M-914.239,317.465c-24.076,27.319-55.119,42.37-87.458,42.37
		c-10.546,0-21.167-1.64-31.575-4.846c-72.666-26.655-99.645-107.418-100.658-168.633c0.599-37.009,9.735-73.283,25.689-102.15
		c17.731-32.127,43.706-55.154,75.116-66.614c10.113-3.408,20.77-5.176,31.391-5.176c46.598,0,92.375,33.86,113.929,84.243
		C-854.757,168.155-866.195,262.935-914.239,317.465 M-876.623,91.704c-23.47-54.842-73.743-91.685-125.111-91.685
		c-11.938,0-23.866,1.97-35.499,5.895c-34.2,12.471-62.423,37.433-81.627,72.195c-16.977,30.71-26.638,69.156-27.256,108.248
		c1.031,65.288,30.167,151.684,108.993,180.404c11.662,3.631,23.581,5.454,35.426,5.454c35.839,0,70.122-16.506,96.502-46.479
		C-854.055,267.743-841.805,167.105-876.623,91.704"/>
	<path clip-path="url(#SVGID_2_)" fill="#776C68" d="M-931.316,272.219c-0.111-0.257-0.591-0.81-0.774-0.976l-4.938-3.813
		c-27.576-21.185-61.852-47.527-75.787-80.263c6.678-15.014,18.708-28.242,30.533-41.266c9.295-10.243,18.874-20.817,26.021-32.828
		c1.162-3.223,4.312-6.171,7.406-9.082c4.754-4.514,10.169-9.597,8.677-16.856c-0.184-0.921-0.829-1.713-1.676-2.043
		c-0.202-0.092-0.793-0.222-1.032-0.222c-0.534,0-1.068,0.165-1.585,0.497l-21.331,14.94c-0.535,0.405-0.92,0.958-1.086,1.695
		c-4.958,23.634-38.78,57.696-50.947,69.321c-0.23-15.18-0.774-54.399-1.042-79.011c-0.221-3.832,0.756-7.921,1.723-11.919
		c1.658-7.019,3.546-14.977-1.667-21.572c-0.599-0.737-1.658-1.179-2.597-0.976c-1.004,0.165-1.796,0.847-2.119,1.749
		l-13.991,36.623c-0.452,1.161-0.037,2.543,0.958,3.298c0.019,0.018,3.095,2.505,4.91,10.537
		c3.905,17.132,5.489,87.081-1.493,111.619c-6.585,24.832-11.965,34.08-20.54,35.388c-0.607,0.109-1.17,0.147-1.742,0.147
		c-7.709,0-12.748-8.216-12.803-8.309c-0.396-0.644-1.041-1.105-1.777-1.288c-0.645-0.111-1.584,0.019-2.229,0.496
		c-0.636,0.479-6.301,4.882-7.728,11.863c-1.603,7.886,0.58,17.998,9.394,21.609c1.787,0.423,3.676,0.646,5.62,0.646
		c6.227,0,11.956-2.358,15.805-4.386c13.881-9.026,17.621-22.511,25.054-49.406l0.267-0.978c1.677-6.042,3.546-12.784,5.748-20.281
		l54.822,56.555c-0.496,14.48,11.643,16.562,20.689,18.126c4.439,0.774,9.008,1.566,11.955,3.538
		c0.479,0.259,0.959,0.406,1.475,0.406c0.719,0,1.383-0.259,1.843-0.719c0.957-0.848,1.216-2.21,0.663-3.354L-931.316,272.219z"/>
	<path clip-path="url(#SVGID_2_)" fill="#B1B1B1" d="M-936.18,194.849c-0.275,0-0.812,0.091-1.032,0.184
		c-3.832,1.436-7.093,4.182-9.983,6.613l-0.186,0.147c-2.727,2.34-5.821,4.975-9.321,6.116c-2.026,0.792-4.937-0.093-5.619-1.234
		c-1.657-6.061,2.486-10.188,7.719-15.418c2.523-2.525,5.38-5.361,7.479-9.083c1.07-3.059,1.034-5.527-0.071-7.554
		c-1.732-3.242-5.546-4.163-8.881-4.974c-5.306-1.289-7.147-2.044-6.815-5.25c1.842-5.821,7.699-10.298,11.09-12.472
		c1.436-1.124,4.273-1.456,6.78-1.75c3.757-0.479,7.976-0.976,10.297-4.126c1.381-1.823,1.86-4.236,1.417-7.11
		c-0.219-1.456-1.453-2.542-2.872-2.542h-1.585c-1.125,0-2.136,0.663-2.634,1.713c-1.272,2.745-4.22,3.482-8.05,4.458
		c-1.548,0.368-3.39,0.847-5.563,1.787c-7.223,4.514-19.179,14.093-18.201,27.356c0,0.461,0.109,0.884,0.422,1.437
		c2.673,4.274,6.93,5.306,10.337,6.135c1.4,0.332,2.651,0.663,3.738,1.105c-1.621,2.027-3.591,3.997-5.692,6.042l-0.184,0.202
		c-5.803,5.748-12.416,12.252-11.754,22.566c1.512,6.432,7.886,8.715,12.858,8.715c9.359,0,16.065-6.005,22.181-12.251
		c0-0.019,0.368-0.515,0.478-0.792c0.095-0.202,0.427-0.33,1.585-0.607c1.476-0.332,6.08-1.362,4.9-6.982
		c-0.146-0.883-0.681-1.64-1.454-2.062C-935.186,194.978-935.664,194.849-936.18,194.849"/>
</g>
<circle fill="#EDEDED" cx="-770.15" cy="56.889" r="56.887"/>
<path fill-rule="evenodd" clip-rule="evenodd" fill="#999999" d="M-778.477,59.941v25.943h12.622v-25.82h8.615l2.086-10.766h-10.613
	c0,0,0-5.064,0-7.895c0-1.092,0.584-2.549,2.348-2.549c2.721,0,6.135,0,6.135,0V27.893c0,0-5.527,0-11.451,0
	c-3.954,0-9.786,4.865-9.786,10.041c0,5.326,0,11.061,0,11.061h-6.621v10.9L-778.477,59.941z"/>
<circle fill="#EDEDED" cx="-651.828" cy="56.888" r="56.888"/>
<circle fill="#EDEDED" cx="-533.516" cy="56.888" r="56.888"/>
<circle fill="#EDEDED" cx="-297.634" cy="56.888" r="56.888"/>
<circle fill="#EDEDED" cx="-179.328" cy="56.888" r="56.888"/>
<path fill="#999999" d="M-163.358,56.888c0,8.821-7.152,15.967-15.969,15.967c-8.82,0-15.969-7.146-15.969-15.967
	c0-1.052,0.105-2.075,0.301-3.069h-10.742v21.225c0,4.556,3.693,8.253,8.256,8.253h36.309c4.557,0,8.254-3.693,8.254-8.253V53.818
	h-10.738C-163.464,54.812-163.358,55.836-163.358,56.888z M-161.173,30.479h-36.309c-4.561,0-8.256,3.697-8.256,8.255v8.939h13.371
	c2.891-4.081,7.652-6.753,13.039-6.753s10.148,2.672,13.037,6.753h13.371v-8.939C-152.919,34.177-156.616,30.479-161.173,30.479z
	 M-157.136,40.676c0,0.812-0.662,1.473-1.473,1.473h-4.418c-0.812,0-1.475-0.664-1.475-1.473v-4.424
	c0-0.812,0.666-1.473,1.475-1.473h4.418c0.812,0,1.473,0.661,1.473,1.473V40.676z M-169.501,56.888c0-5.429-4.4-9.826-9.826-9.826
	s-9.828,4.397-9.828,9.826s4.402,9.826,9.828,9.826S-169.501,62.316-169.501,56.888z"/>
<circle fill="#EDEDED" cx="-415.329" cy="56.888" r="56.888"/>
<path fill="#999999" d="M-309.771,65.285c-3.125,0-5.664,2.548-5.664,5.652c0,3.123,2.539,5.643,5.664,5.643
	c3.135,0,5.67-2.521,5.67-5.643C-304.102,67.833-306.637,65.285-309.771,65.285z M-315.43,48.541v8.154
	c5.311,0,10.303,2.076,14.062,5.838c3.756,3.752,5.828,8.768,5.828,14.097h8.189C-287.35,61.14-299.947,48.541-315.43,48.541z
	 M-315.42,34.085v8.158c18.938,0,34.35,15.428,34.35,34.387h8.18C-272.891,53.178-291.971,34.085-315.42,34.085z"/>
<path fill="#999999" d="M-623.145,39.096c-2.109,0.935-4.377,1.568-6.758,1.853c2.43-1.457,4.296-3.763,5.175-6.51
	c-2.276,1.349-4.793,2.327-7.476,2.854c-2.146-2.285-5.204-3.715-8.591-3.715c-6.5,0-11.77,5.271-11.77,11.769
	c0,0.923,0.105,1.821,0.304,2.683c-9.78-0.491-18.452-5.176-24.258-12.298c-1.013,1.739-1.593,3.761-1.593,5.918
	c0,4.082,2.077,7.686,5.235,9.797c-1.931-0.063-3.743-0.593-5.33-1.474c-0.003,0.048-0.003,0.099-0.003,0.148
	c0,5.702,4.059,10.46,9.443,11.541c-0.987,0.268-2.027,0.413-3.103,0.413c-0.758,0-1.495-0.074-2.213-0.212
	c1.497,4.676,5.844,8.079,10.995,8.174c-4.03,3.157-9.104,5.038-14.619,5.038c-0.949,0-1.887-0.055-2.808-0.166
	c5.21,3.341,11.396,5.291,18.042,5.291c21.649,0,33.487-17.935,33.487-33.488c0-0.511-0.012-1.019-0.034-1.522
	C-626.716,43.528-624.72,41.455-623.145,39.096z"/>
<path fill="#999999" d="M-532.183,73.173c0-0.422-0.046-0.832-0.137-1.225c-0.091-0.394-0.185-0.756-0.287-1.091
	c-0.102-0.333-0.276-0.68-0.53-1.042c-0.252-0.365-0.464-0.672-0.635-0.925c-0.172-0.252-0.439-0.549-0.803-0.892
	c-0.362-0.345-0.641-0.602-0.832-0.771c-0.191-0.173-0.514-0.431-0.969-0.771c-0.455-0.345-0.768-0.575-0.938-0.698
	c-0.173-0.12-0.504-0.352-0.999-0.695c-0.495-0.344-0.803-0.556-0.924-0.636c-0.343-0.04-0.847-0.062-1.515-0.062
	c-1.088,0-2.157,0.071-3.207,0.212c-1.05,0.142-2.139,0.394-3.269,0.758c-1.131,0.362-2.119,0.827-2.968,1.391
	c-0.846,0.565-1.543,1.322-2.087,2.271c-0.544,0.947-0.817,2.027-0.817,3.237c0,1.374,0.358,2.599,1.073,3.68
	c0.717,1.079,1.656,1.926,2.814,2.542c1.162,0.615,2.377,1.073,3.649,1.377c1.271,0.301,2.551,0.453,3.843,0.453
	c1.19,0,2.327-0.127,3.406-0.379s2.093-0.646,3.042-1.181c0.948-0.535,1.7-1.275,2.255-2.222
	C-532.46,75.555-532.183,74.444-532.183,73.173z M-535.815,47.083c0-1.211-0.166-2.497-0.499-3.858s-0.808-2.679-1.423-3.95
	c-0.614-1.272-1.462-2.321-2.542-3.147c-1.079-0.828-2.285-1.243-3.618-1.243c-1.875,0-3.328,0.698-4.357,2.089
	c-1.028,1.393-1.544,3.057-1.544,4.994c0,0.95,0.116,1.947,0.348,2.997c0.232,1.048,0.591,2.098,1.075,3.148
	c0.483,1.048,1.048,1.992,1.695,2.83c0.646,0.838,1.433,1.519,2.361,2.043c0.927,0.525,1.906,0.787,2.935,0.787
	c1.957,0,3.374-0.61,4.254-1.831C-536.254,50.719-535.815,49.101-535.815,47.083z M-539.781,32.705h13.228l-4.085,2.392h-4.086
	c1.433,0.908,2.542,2.18,3.33,3.815c0.786,1.634,1.181,3.338,1.181,5.115c0,1.492-0.234,2.819-0.698,3.979
	c-0.464,1.161-1.028,2.094-1.694,2.799c-0.667,0.707-1.331,1.358-1.998,1.952c-0.665,0.597-1.23,1.211-1.693,1.848
	c-0.465,0.637-0.698,1.316-0.698,2.042c0,0.524,0.166,1.041,0.501,1.545c0.333,0.504,0.767,0.987,1.301,1.451
	c0.534,0.464,1.125,0.95,1.771,1.454s1.291,1.063,1.938,1.68c0.644,0.616,1.234,1.28,1.77,1.996
	c0.535,0.716,0.969,1.574,1.302,2.573c0.334,1,0.5,2.075,0.5,3.225c0,3.228-1.412,6.073-4.237,8.535
	c-3.067,2.643-7.306,3.964-12.714,3.964c-1.188,0-2.394-0.1-3.616-0.301c-1.22-0.203-2.452-0.541-3.693-1.015
	c-1.238-0.473-2.334-1.061-3.283-1.755c-0.948-0.696-1.725-1.596-2.33-2.695c-0.605-1.099-0.908-2.325-0.908-3.678
	c0-1.229,0.374-2.591,1.12-4.085c0.646-1.292,1.614-2.407,2.905-3.345s2.754-1.654,4.391-2.148c1.634-0.495,3.196-0.858,4.69-1.09
	s3.006-0.368,4.54-0.409c-1.291-1.673-1.937-3.177-1.937-4.51c0-0.241,0.019-0.479,0.059-0.711c0.042-0.23,0.092-0.427,0.152-0.59
	c0.06-0.161,0.141-0.378,0.241-0.65c0.102-0.272,0.172-0.49,0.212-0.65c-0.805,0.1-1.513,0.15-2.118,0.15
	c-3.006,0-5.584-0.99-7.734-2.967c-2.148-1.977-3.221-4.46-3.221-7.445c0-2.825,0.956-5.352,2.874-7.582
	c1.918-2.23,4.278-3.657,7.082-4.284C-543.543,32.908-541.656,32.705-539.781,32.705z M-508.332,40.455v3.874h-7.748v7.75h-3.875
	v-7.75h-7.748v-3.874h7.748v-7.75h3.875v7.75H-508.332z"/>
<path fill="#999999" d="M-419.388,66.355c-1.539,8.072-3.418,15.814-8.99,19.856c-1.719-12.203,2.525-21.366,4.494-31.096
	c-3.359-5.659,0.404-17.043,7.495-14.236c8.724,3.45-7.553,21.034,3.372,23.229c11.411,2.294,16.067-19.792,8.995-26.973
	c-10.223-10.377-29.759-0.244-27.354,14.604c0.583,3.63,4.335,4.732,1.5,9.74c-6.544-1.446-8.494-6.608-8.244-13.488
	c0.404-11.257,10.116-19.14,19.857-20.231c12.323-1.379,23.886,4.523,25.478,16.112c1.799,13.079-5.559,27.243-18.735,26.224
	C-415.089,69.824-416.589,68.056-419.388,66.355z"/>
<circle fill="#EDEDED" cx="-61.279" cy="56.888" r="56.888"/>
<path fill="#999999" d="M-74.214,36.632c0,2.79-2.061,5.053-5.451,5.053c-3.193,0-5.254-2.263-5.254-5.053
	c0-2.86,2.131-5.057,5.387-5.057C-76.274,31.575-74.278,33.771-74.214,36.632z M-84.651,78.197V45.676h10.107v32.521H-84.651z
	 M-68.495,56.051c0-4.058-0.133-7.448-0.268-10.375h8.779l0.467,4.525h0.201c1.328-2.13,4.588-5.255,10.041-5.255
	c6.648,0,11.637,4.455,11.637,14.033v19.22h-10.107V60.178c0-4.191-1.467-7.051-5.123-7.051c-2.791,0-4.451,1.928-5.186,3.789
	c-0.268,0.664-0.332,1.596-0.332,2.528v18.755h-10.109V56.051z"/>
<circle fill="#EDEDED" cx="56.888" cy="56.888" r="56.888"/>
<circle fill="#999999" cx="-770.15" cy="175.502" r="56.887"/>
<path fill-rule="evenodd" clip-rule="evenodd" fill="#EDEDED" d="M-778.477,178.555v25.944h12.622v-25.821h8.615l2.086-10.765
	h-10.613c0,0,0-5.064,0-7.895c0-1.09,0.584-2.547,2.348-2.547c2.721,0,6.135,0,6.135,0v-10.965c0,0-5.527,0-11.451,0
	c-3.954,0-9.786,4.867-9.786,10.043c0,5.326,0,11.061,0,11.061h-6.621v10.9L-778.477,178.555z"/>
<circle fill="#999999" cx="-651.828" cy="175.502" r="56.888"/>
<circle fill="#999999" cx="-533.516" cy="175.504" r="56.888"/>
<circle fill="#999999" cx="-297.635" cy="175.505" r="56.888"/>
<circle fill="#999999" cx="-179.329" cy="175.505" r="56.888"/>
<path fill="#EDEDED" d="M-163.359,175.505c0,8.82-7.152,15.968-15.969,15.968c-8.82,0-15.969-7.147-15.969-15.968
	c0-1.053,0.105-2.076,0.301-3.07h-10.742v21.226c0,4.557,3.693,8.254,8.256,8.254h36.309c4.557,0,8.254-3.693,8.254-8.254v-21.226
	h-10.738C-163.465,173.429-163.359,174.452-163.359,175.505z M-161.174,149.097h-36.309c-4.561,0-8.256,3.697-8.256,8.254v8.939
	h13.371c2.891-4.08,7.652-6.752,13.039-6.752s10.148,2.672,13.037,6.752h13.371v-8.939
	C-152.92,152.794-156.617,149.097-161.174,149.097z M-157.137,159.292c0,0.812-0.662,1.473-1.473,1.473h-4.418
	c-0.812,0-1.475-0.664-1.475-1.473v-4.424c0-0.811,0.666-1.473,1.475-1.473h4.418c0.812,0,1.473,0.662,1.473,1.473V159.292z
	 M-169.502,175.505c0-5.43-4.4-9.826-9.826-9.826s-9.828,4.396-9.828,9.826c0,5.428,4.402,9.826,9.828,9.826
	S-169.502,180.933-169.502,175.505z"/>
<circle fill="#999999" cx="-415.33" cy="175.503" r="56.888"/>
<path fill="#EDEDED" d="M-309.772,183.902c-3.125,0-5.664,2.549-5.664,5.652c0,3.123,2.539,5.643,5.664,5.643
	c3.135,0,5.67-2.52,5.67-5.643C-304.103,186.451-306.638,183.902-309.772,183.902z M-315.431,167.158v8.154
	c5.311,0,10.303,2.076,14.062,5.838c3.756,3.752,5.828,8.768,5.828,14.098h8.189C-287.351,179.757-299.948,167.158-315.431,167.158z
	 M-315.421,152.702v8.159c18.938,0,34.35,15.427,34.35,34.387h8.18C-272.892,171.794-291.972,152.702-315.421,152.702z"/>
<path fill="#EDEDED" d="M-623.145,157.711c-2.109,0.934-4.377,1.568-6.758,1.852c2.43-1.457,4.296-3.762,5.175-6.51
	c-2.276,1.35-4.793,2.328-7.476,2.854c-2.146-2.285-5.204-3.715-8.591-3.715c-6.5,0-11.77,5.271-11.77,11.77
	c0,0.922,0.105,1.82,0.304,2.682c-9.78-0.49-18.452-5.176-24.258-12.297c-1.013,1.738-1.593,3.76-1.593,5.918
	c0,4.082,2.077,7.686,5.235,9.797c-1.931-0.064-3.743-0.594-5.33-1.475c-0.003,0.049-0.003,0.1-0.003,0.148
	c0,5.703,4.059,10.461,9.443,11.541c-0.987,0.268-2.027,0.414-3.103,0.414c-0.758,0-1.495-0.074-2.213-0.213
	c1.497,4.676,5.844,8.08,10.995,8.174c-4.03,3.158-9.104,5.039-14.619,5.039c-0.949,0-1.887-0.055-2.808-0.166
	c5.21,3.34,11.396,5.291,18.042,5.291c21.649,0,33.487-17.936,33.487-33.488c0-0.512-0.012-1.02-0.034-1.523
	C-626.716,162.143-624.72,160.07-623.145,157.711z"/>
<path fill="#EDEDED" d="M-532.183,191.788c0-0.422-0.046-0.832-0.137-1.225c-0.091-0.395-0.185-0.756-0.287-1.092
	c-0.102-0.332-0.276-0.68-0.53-1.041c-0.252-0.365-0.464-0.672-0.635-0.926c-0.172-0.252-0.439-0.549-0.803-0.893
	c-0.362-0.344-0.641-0.601-0.832-0.771c-0.191-0.172-0.514-0.43-0.969-0.772c-0.455-0.343-0.768-0.574-0.938-0.697
	c-0.173-0.121-0.504-0.352-0.999-0.695s-0.803-0.557-0.924-0.637c-0.343-0.039-0.847-0.061-1.515-0.061
	c-1.088,0-2.157,0.07-3.207,0.211c-1.05,0.143-2.139,0.395-3.269,0.76c-1.131,0.361-2.119,0.827-2.968,1.391
	c-0.846,0.565-1.543,1.32-2.087,2.271c-0.544,0.945-0.817,2.027-0.817,3.236c0,1.375,0.358,2.6,1.073,3.68
	c0.717,1.08,1.656,1.926,2.814,2.543c1.162,0.615,2.377,1.072,3.649,1.377c1.271,0.301,2.551,0.453,3.843,0.453
	c1.19,0,2.327-0.127,3.406-0.379s2.093-0.646,3.042-1.182c0.948-0.535,1.7-1.275,2.255-2.223
	C-532.46,194.169-532.183,193.06-532.183,191.788z M-535.815,165.697c0-1.211-0.166-2.496-0.499-3.858
	c-0.333-1.361-0.808-2.68-1.423-3.949c-0.614-1.273-1.462-2.322-2.542-3.148c-1.079-0.828-2.285-1.242-3.618-1.242
	c-1.875,0-3.328,0.697-4.357,2.09c-1.028,1.393-1.544,3.057-1.544,4.992c0,0.951,0.116,1.947,0.348,2.999
	c0.232,1.049,0.591,2.098,1.075,3.148c0.483,1.047,1.048,1.992,1.695,2.828c0.646,0.838,1.433,1.52,2.361,2.043
	c0.927,0.525,1.906,0.787,2.935,0.787c1.957,0,3.374-0.609,4.254-1.83C-536.254,169.334-535.815,167.717-535.815,165.697z
	 M-539.781,151.32h13.228l-4.085,2.393h-4.086c1.433,0.908,2.542,2.18,3.33,3.814c0.786,1.632,1.181,3.337,1.181,5.115
	c0,1.492-0.234,2.818-0.698,3.979c-0.464,1.162-1.028,2.094-1.694,2.799c-0.667,0.707-1.331,1.359-1.998,1.953
	c-0.665,0.596-1.23,1.211-1.693,1.848c-0.465,0.637-0.698,1.314-0.698,2.041c0,0.525,0.166,1.041,0.501,1.545
	c0.333,0.504,0.767,0.988,1.301,1.451c0.534,0.465,1.125,0.951,1.771,1.455c0.646,0.503,1.291,1.062,1.938,1.679
	c0.644,0.615,1.234,1.281,1.77,1.996c0.535,0.717,0.969,1.574,1.302,2.572c0.334,1,0.5,2.076,0.5,3.226
	c0,3.227-1.412,6.072-4.237,8.533c-3.067,2.643-7.306,3.965-12.714,3.965c-1.188,0-2.394-0.1-3.616-0.301
	c-1.22-0.203-2.452-0.541-3.693-1.016c-1.238-0.473-2.334-1.061-3.283-1.754c-0.948-0.697-1.725-1.596-2.33-2.695
	c-0.605-1.098-0.908-2.324-0.908-3.678c0-1.229,0.374-2.592,1.12-4.086c0.646-1.291,1.614-2.405,2.905-3.343
	c1.291-0.938,2.754-1.655,4.391-2.149c1.634-0.496,3.196-0.857,4.69-1.089s3.006-0.367,4.54-0.41
	c-1.291-1.671-1.937-3.175-1.937-4.509c0-0.24,0.019-0.479,0.059-0.711c0.042-0.23,0.092-0.426,0.152-0.59
	c0.06-0.162,0.141-0.379,0.241-0.65c0.102-0.271,0.172-0.49,0.212-0.65c-0.805,0.1-1.513,0.15-2.118,0.15
	c-3.006,0-5.584-0.99-7.734-2.967c-2.148-1.977-3.221-4.459-3.221-7.445c0-2.825,0.956-5.352,2.874-7.58
	c1.918-2.23,4.278-3.658,7.082-4.285C-543.543,151.523-541.656,151.32-539.781,151.32z M-508.332,159.07v3.874h-7.748v7.75h-3.875
	v-7.75h-7.748v-3.874h7.748v-7.75h3.875v7.75H-508.332z"/>
<path fill="#EDEDED" d="M-419.388,184.97c-1.539,8.073-3.418,15.815-8.99,19.858c-1.719-12.203,2.525-21.368,4.494-31.097
	c-3.359-5.66,0.404-17.042,7.494-14.235c8.725,3.449-7.553,21.032,3.373,23.228c11.41,2.293,16.066-19.792,8.994-26.972
	c-10.223-10.377-29.758-0.244-27.354,14.603c0.582,3.631,4.334,4.732,1.5,9.74c-6.545-1.445-8.494-6.606-8.244-13.488
	c0.404-11.255,10.115-19.138,19.857-20.229c12.322-1.379,23.885,4.523,25.477,16.111c1.799,13.079-5.559,27.244-18.734,26.224
	C-415.089,188.438-416.589,186.671-419.388,184.97z"/>
<circle fill="#999999" cx="-61.279" cy="175.502" r="56.888"/>
<path fill="#EDEDED" d="M-74.214,155.247c0,2.791-2.061,5.052-5.451,5.052c-3.193,0-5.254-2.262-5.254-5.052
	c0-2.859,2.131-5.057,5.387-5.057C-76.274,150.19-74.278,152.388-74.214,155.247z M-84.651,196.812v-32.521h10.107v32.521H-84.651z
	 M-68.495,174.666c0-4.059-0.133-7.449-0.268-10.375h8.779l0.467,4.525h0.201c1.328-2.13,4.588-5.255,10.041-5.255
	c6.648,0,11.637,4.455,11.637,14.033v19.221h-10.107v-18.021c0-4.192-1.467-7.051-5.123-7.051c-2.791,0-4.451,1.928-5.186,3.789
	c-0.268,0.664-0.332,1.596-0.332,2.528v18.755h-10.109V174.666z"/>
<path fill="#999999" d="M113.776,175.501c0,31.419-25.469,56.89-56.887,56.89S0.001,206.92,0.001,175.501
	c0-31.416,25.471-56.885,56.889-56.885S113.776,144.085,113.776,175.501z"/>
<polygon fill="#999999" points="56.888,68.388 56.888,68.39 56.888,68.388 22.77,44.125 22.77,81.339 91.006,81.339 91.006,44.126 
	"/>
<polygon fill="#999999" points="90.662,37.667 23.112,37.667 56.887,61.616 "/>
<polygon fill="#EDEDED" points="56.888,184.389 56.888,184.391 56.888,184.389 22.77,160.126 22.77,197.34 91.006,197.34 
	91.006,160.127 "/>
<polygon fill="#EDEDED" points="90.662,153.668 23.112,153.668 56.887,177.617 "/>
</svg>
