<?xml version="1.0" encoding="UTF-8" standalone="no"?>
<!-- Created with Inkscape (http://www.inkscape.org/) -->

<svg
   xmlns:dc="http://purl.org/dc/elements/1.1/"
   xmlns:cc="http://creativecommons.org/ns#"
   xmlns:rdf="http://www.w3.org/1999/02/22-rdf-syntax-ns#"
   xmlns:svg="http://www.w3.org/2000/svg"
   xmlns="http://www.w3.org/2000/svg"
   xmlns:sodipodi="http://sodipodi.sourceforge.net/DTD/sodipodi-0.dtd"
   xmlns:inkscape="http://www.inkscape.org/namespaces/inkscape"
   width="64px"
   height="64px"
   id="svg3685"
   version="1.1"
   inkscape:version="0.48.4 r9939"
   sodipodi:docname="icon-pinterest.svg">
  <defs
     id="defs3687" />
  <sodipodi:namedview
     id="base"
     pagecolor="#ffffff"
     bordercolor="#666666"
     borderopacity="1.0"
     inkscape:pageopacity="0.0"
     inkscape:pageshadow="2"
     inkscape:zoom="5.5"
     inkscape:cx="32"
     inkscape:cy="32"
     inkscape:current-layer="layer1"
     showgrid="true"
     inkscape:document-units="px"
     inkscape:grid-bbox="true"
     inkscape:window-width="960"
     inkscape:window-height="1028"
     inkscape:window-x="2880"
     inkscape:window-y="24"
     inkscape:window-maximized="0" />
  <metadata
     id="metadata3690">
    <rdf:RDF>
      <cc:Work
         rdf:about="">
        <dc:format>image/svg+xml</dc:format>
        <dc:type
           rdf:resource="http://purl.org/dc/dcmitype/StillImage" />
        <dc:title></dc:title>
      </cc:Work>
    </rdf:RDF>
  </metadata>
  <g
     id="layer1"
     inkscape:label="Layer 1"
     inkscape:groupmode="layer">
    <path
       inkscape:connector-curvature="0"
       d="m 64.108352,32.09091 c 0,17.681646 -14.334625,32.016817 -32.015596,32.016817 -17.684664,0 -32.01928964,-14.335171 -32.01928964,-32.016817 0,-17.681648 14.33462564,-32.01681945 32.01928964,-32.01681945 17.680971,0 32.015596,14.33517145 32.015596,32.01681945"
       style="fill:#ededed;fill-opacity:1;fill-rule:nonzero;stroke:none"
       id="path54" />
    <path
       inkscape:connector-curvature="0"
       d="m 41.934944,24.721633 0,0 c 0,-0.480179 0,-0.960357 0,-1.440536 0,-0.09234 -0.0038,-0.188377 -0.026,-0.277026 -0.103419,-0.46171 -0.509708,-0.75351 -0.956626,-0.757204 -0.125581,0 -0.254854,0 -0.380435,0 -0.853207,0 -1.706415,0 -2.559622,0 -0.373048,0 -0.801498,0.232702 -0.934466,0.679637 -0.03324,0.114504 -0.05171,0.236396 -0.05171,0.354593 -0.0035,0.95297 -0.0035,1.905939 0,2.858909 0,0.118197 0.01861,0.240089 0.0554,0.354593 0.129274,0.406305 0.498628,0.668556 0.938159,0.67225 0.975094,0.0035 1.946495,0 2.921589,0 0.132968,0 0.265935,-0.02216 0.387822,-0.07757 0.380434,-0.173603 0.59466,-0.469097 0.602047,-0.886483 0.01123,-0.494953 0.0038,-0.986212 0.0038,-1.481165 m -4.923488,7.368892 c 0.0074,-2.640981 -2.123785,-4.919983 -4.927181,-4.916289 -2.729524,0.0035 -4.905018,2.19774 -4.908712,4.912596 0,2.762872 2.230896,4.927369 4.919793,4.927369 2.751686,-0.0038 4.927181,-2.245758 4.9161,-4.923676 m 2.729526,-1.942875 c 0.554031,2.400892 0.140354,4.609712 -1.296432,6.622768 -1.495884,1.95765 -3.475621,3.032511 -5.939211,3.198727 -0.446919,0.02955 -0.893837,0.01832 -1.337061,-0.04063 -0.443225,-0.05541 -0.879063,-0.144053 -1.307513,-0.269638 -0.435838,-0.132973 -0.8569,-0.295495 -1.263189,-0.494953 -0.402596,-0.195765 -0.783031,-0.432161 -1.144998,-0.694412 -0.361966,-0.262252 -0.698078,-0.554052 -1.008336,-0.875402 -0.313951,-0.321351 -0.598353,-0.664863 -0.849514,-1.034231 -0.254854,-0.369368 -0.48016,-0.757204 -0.664837,-1.163509 -0.184677,-0.406305 -0.339805,-0.823691 -0.454305,-1.255851 -0.1145,-0.439548 -0.195758,-0.88279 -0.236387,-1.337112 -0.04063,-0.446936 -0.04063,-0.890177 -0.0035,-1.337112 0.03693,-0.446936 0.12558,-0.88279 0.214225,-1.31495 -0.02571,-0.01123 -0.03694,-0.01832 -0.04802,-0.01832 -0.04802,-0.0038 -0.09603,-0.0038 -0.140355,-0.0038 -0.653756,0 -1.307512,0.0038 -1.961269,0.0074 -0.0074,0 -0.01123,0 -0.01862,0.0038 -0.0035,0.0035 -0.01093,0.0074 -0.02571,0.02955 -0.0035,0.06279 -0.0074,0.140359 -0.0074,0.217927 0,3.475753 0,6.947812 0,10.423565 0,0.05171 0,0.107116 0,0.158828 0.01832,0.483872 0.339805,0.842159 0.757175,0.938195 0.1145,0.02955 0.225306,0.02955 0.336112,0.02955 5.835792,0 11.671582,0 17.503681,0 0.04063,0 0.08126,0 0.121886,0 0.398903,0 0.82366,-0.269639 0.934466,-0.731349 0.026,-0.11081 0.03324,-0.225314 0.03324,-0.336125 0,-3.501608 0,-7.003217 0,-10.501132 0,-0.04063 0.0038,-0.08126 0,-0.121891 -0.0038,-0.03694 -0.01477,-0.07387 -0.02216,-0.107117 -0.269628,-0.02216 -2.016672,-0.01478 -2.171801,0.0074 m 5.159875,1.946569 c 0,3.276294 0,6.548894 0,9.825189 0,0.350899 -0.04063,0.690718 -0.16621,1.019455 -0.413676,1.056393 -1.174545,1.702787 -2.293687,1.924407 -0.151436,0.02955 -0.302871,0.03324 -0.454306,0.03324 -6.596661,0 -13.19332,0 -19.786287,0 -0.712853,0 -1.333368,-0.24009 -1.868931,-0.694412 -0.609434,-0.517115 -0.945546,-1.178284 -1.037885,-1.968732 -0.01477,-0.118197 -0.01123,-0.240089 -0.01123,-0.358287 0,-1.488553 0,-2.973412 0,-4.461965 0,-5.027098 0,-10.057892 0,-15.08499 0,-0.317657 0.02571,-0.627926 0.121887,-0.927114 0.347192,-1.06378 1.063739,-1.747111 2.145946,-2.035218 0.221612,-0.0591 0.443225,-0.08126 0.672224,-0.08126 6.581887,0 13.163772,0.0035 19.745659,0 1.370303,0 2.64088,1.012069 2.892041,2.430442 0.02955,0.177296 0.04063,0.358287 0.04063,0.535583 0,1.174591 0,2.349181 0,3.523771 0,2.105398 0,4.21449 0,6.319888"
       style="fill:#999999;fill-opacity:1;fill-rule:nonzero;stroke:none"
       id="path198" />
  </g>
</svg>
