<?xml version="1.0" encoding="utf-8"?>
<!-- Generator: Adobe Illustrator 16.0.4, SVG Export Plug-In . SVG Version: 6.00 Build 0)  -->
<!DOCTYPE svg PUBLIC "-//W3C//DTD SVG 1.1//EN" "http://www.w3.org/Graphics/SVG/1.1/DTD/svg11.dtd">
<svg version="1.1" id="Calque_1" xmlns="http://www.w3.org/2000/svg" xmlns:xlink="http://www.w3.org/1999/xlink" x="0px" y="0px"
	 width="57.343px" height="50.599px" viewBox="0 0 57.343 50.599" enable-background="new 0 0 57.343 50.599" xml:space="preserve">
<g>
	<defs>
		<rect id="SVGID_1_" x="-1294.326" y="-36.317" width="289.242" height="372.232"/>
	</defs>
	<clipPath id="SVGID_2_">
		<use xlink:href="#SVGID_1_"  overflow="visible"/>
	</clipPath>
	<path clip-path="url(#SVGID_2_)" fill="#776C68" d="M-1062.449,281.148c-24.076,27.319-55.119,42.37-87.458,42.37
		c-10.546,0-21.167-1.64-31.575-4.846c-72.666-26.655-99.645-107.418-100.658-168.633c0.599-37.009,9.735-73.283,25.689-102.15
		c17.731-32.127,43.706-55.154,75.116-66.614c10.113-3.408,20.77-5.176,31.391-5.176c46.598,0,92.375,33.86,113.929,84.243
		C-1002.967,131.838-1014.405,226.618-1062.449,281.148 M-1024.833,55.387c-23.47-54.842-73.743-91.685-125.111-91.685
		c-11.938,0-23.866,1.97-35.499,5.895c-34.2,12.471-62.423,37.433-81.627,72.195c-16.977,30.71-26.638,69.156-27.256,108.248
		c1.031,65.288,30.167,151.684,108.993,180.404c11.662,3.631,23.581,5.454,35.426,5.454c35.839,0,70.122-16.506,96.502-46.479
		C-1002.265,231.426-990.015,130.788-1024.833,55.387"/>
	<path clip-path="url(#SVGID_2_)" fill="#776C68" d="M-1079.526,235.902c-0.111-0.257-0.591-0.81-0.774-0.976l-4.938-3.813
		c-27.576-21.185-61.852-47.527-75.787-80.263c6.678-15.014,18.708-28.242,30.533-41.266c9.295-10.243,18.874-20.817,26.021-32.828
		c1.162-3.223,4.312-6.171,7.406-9.082c4.754-4.514,10.169-9.597,8.677-16.856c-0.184-0.921-0.829-1.713-1.676-2.043
		c-0.202-0.092-0.793-0.222-1.032-0.222c-0.534,0-1.068,0.165-1.585,0.497l-21.331,14.94c-0.535,0.405-0.92,0.958-1.086,1.695
		c-4.958,23.634-38.78,57.696-50.947,69.321c-0.23-15.18-0.774-54.399-1.042-79.011c-0.221-3.832,0.756-7.921,1.723-11.919
		c1.658-7.019,3.546-14.977-1.667-21.572c-0.599-0.737-1.658-1.179-2.597-0.976c-1.004,0.165-1.796,0.847-2.119,1.749
		l-13.991,36.623c-0.452,1.161-0.037,2.543,0.958,3.298c0.019,0.018,3.095,2.505,4.91,10.537
		c3.905,17.132,5.489,87.081-1.493,111.619c-6.585,24.832-11.965,34.08-20.54,35.388c-0.607,0.109-1.17,0.147-1.742,0.147
		c-7.709,0-12.748-8.216-12.803-8.309c-0.396-0.644-1.041-1.105-1.777-1.288c-0.645-0.111-1.584,0.019-2.229,0.496
		c-0.636,0.479-6.301,4.882-7.728,11.863c-1.603,7.886,0.58,17.998,9.394,21.609c1.787,0.423,3.676,0.646,5.62,0.646
		c6.227,0,11.956-2.358,15.805-4.386c13.881-9.026,17.621-22.511,25.054-49.406l0.267-0.978c1.677-6.042,3.546-12.784,5.748-20.281
		l54.822,56.555c-0.496,14.48,11.643,16.562,20.689,18.126c4.439,0.774,9.008,1.566,11.955,3.538
		c0.479,0.259,0.959,0.406,1.475,0.406c0.719,0,1.383-0.259,1.843-0.719c0.957-0.848,1.216-2.21,0.663-3.354L-1079.526,235.902z"/>
	<path clip-path="url(#SVGID_2_)" fill="#B1B1B1" d="M-1084.39,158.532c-0.275,0-0.812,0.091-1.032,0.184
		c-3.832,1.436-7.093,4.182-9.983,6.613l-0.186,0.147c-2.727,2.34-5.821,4.975-9.321,6.116c-2.026,0.792-4.937-0.093-5.619-1.234
		c-1.657-6.061,2.486-10.188,7.719-15.418c2.523-2.525,5.38-5.361,7.479-9.083c1.07-3.059,1.034-5.527-0.071-7.554
		c-1.732-3.242-5.546-4.163-8.881-4.974c-5.306-1.289-7.147-2.044-6.815-5.25c1.842-5.821,7.699-10.298,11.09-12.472
		c1.436-1.124,4.273-1.456,6.78-1.75c3.757-0.479,7.976-0.976,10.297-4.126c1.381-1.823,1.86-4.236,1.417-7.11
		c-0.219-1.456-1.453-2.542-2.872-2.542h-1.585c-1.125,0-2.136,0.663-2.634,1.713c-1.272,2.745-4.22,3.482-8.05,4.458
		c-1.548,0.368-3.39,0.847-5.563,1.787c-7.223,4.514-19.179,14.093-18.201,27.356c0,0.461,0.109,0.884,0.422,1.437
		c2.673,4.274,6.93,5.306,10.337,6.135c1.4,0.332,2.651,0.663,3.738,1.105c-1.621,2.027-3.591,3.997-5.692,6.042l-0.184,0.202
		c-5.803,5.748-12.416,12.252-11.754,22.566c1.512,6.432,7.886,8.715,12.858,8.715c9.359,0,16.065-6.005,22.181-12.251
		c0-0.019,0.368-0.515,0.478-0.792c0.095-0.202,0.427-0.33,1.585-0.607c1.476-0.332,6.08-1.362,4.9-6.982
		c-0.146-0.883-0.681-1.64-1.454-2.062C-1083.396,158.661-1083.874,158.532-1084.39,158.532"/>
</g>
<circle fill="#EDEDED" cx="-918.36" cy="20.572" r="56.887"/>
<path fill-rule="evenodd" clip-rule="evenodd" fill="#999999" d="M-926.687,23.625v25.943h12.622v-25.82h8.615l2.086-10.766h-10.613
	c0,0,0-5.064,0-7.895c0-1.092,0.584-2.549,2.348-2.549c2.721,0,6.135,0,6.135,0V-8.424c0,0-5.527,0-11.451,0
	c-3.954,0-9.786,4.865-9.786,10.041c0,5.326,0,11.061,0,11.061h-6.621v10.9L-926.687,23.625z"/>
<circle fill="#EDEDED" cx="-800.038" cy="20.571" r="56.888"/>
<circle fill="#EDEDED" cx="-681.726" cy="20.571" r="56.888"/>
<circle fill="#EDEDED" cx="-445.844" cy="20.571" r="56.888"/>
<circle fill="#EDEDED" cx="-327.538" cy="20.571" r="56.888"/>
<path fill="#999999" d="M-311.568,20.571c0,8.821-7.152,15.967-15.969,15.967c-8.82,0-15.969-7.146-15.969-15.967
	c0-1.052,0.105-2.075,0.301-3.069h-10.742v21.225c0,4.556,3.693,8.253,8.256,8.253h36.309c4.557,0,8.254-3.693,8.254-8.253V17.501
	h-10.738C-311.674,18.496-311.568,19.519-311.568,20.571z M-309.383-5.837h-36.309c-4.561,0-8.256,3.697-8.256,8.255v8.939h13.371
	c2.891-4.081,7.652-6.753,13.039-6.753s10.148,2.672,13.037,6.753h13.371V2.417C-301.129-2.14-304.826-5.837-309.383-5.837z
	 M-305.346,4.359c0,0.812-0.662,1.473-1.473,1.473h-4.418c-0.812,0-1.475-0.664-1.475-1.473v-4.424c0-0.812,0.666-1.473,1.475-1.473
	h4.418c0.812,0,1.473,0.661,1.473,1.473V4.359z M-317.711,20.571c0-5.429-4.4-9.826-9.826-9.826s-9.828,4.397-9.828,9.826
	s4.402,9.826,9.828,9.826S-317.711,26-317.711,20.571z"/>
<circle fill="#EDEDED" cx="-563.539" cy="20.571" r="56.888"/>
<path fill="#999999" d="M-457.981,28.968c-3.125,0-5.664,2.548-5.664,5.652c0,3.123,2.539,5.643,5.664,5.643
	c3.135,0,5.67-2.521,5.67-5.643C-452.312,31.516-454.847,28.968-457.981,28.968z M-463.64,12.224v8.154
	c5.311,0,10.303,2.076,14.062,5.838c3.756,3.752,5.828,8.768,5.828,14.097h8.189C-435.56,24.823-448.157,12.224-463.64,12.224z
	 M-463.63-2.232v8.158c18.938,0,34.35,15.428,34.35,34.387h8.18C-421.101,16.861-440.181-2.232-463.63-2.232z"/>
<path fill="#999999" d="M-771.354,2.779c-2.109,0.935-4.377,1.568-6.758,1.853c2.43-1.457,4.296-3.763,5.175-6.51
	c-2.276,1.349-4.793,2.327-7.476,2.854c-2.146-2.285-5.204-3.715-8.591-3.715c-6.5,0-11.77,5.271-11.77,11.769
	c0,0.923,0.105,1.821,0.304,2.683c-9.78-0.491-18.452-5.176-24.258-12.298c-1.013,1.739-1.593,3.761-1.593,5.918
	c0,4.082,2.077,7.686,5.235,9.797c-1.931-0.063-3.743-0.593-5.33-1.474c-0.003,0.048-0.003,0.099-0.003,0.148
	c0,5.702,4.059,10.46,9.443,11.541c-0.987,0.268-2.027,0.413-3.103,0.413c-0.758,0-1.495-0.074-2.213-0.212
	c1.497,4.676,5.844,8.079,10.995,8.174c-4.03,3.157-9.104,5.038-14.619,5.038c-0.949,0-1.887-0.055-2.808-0.166
	c5.21,3.341,11.396,5.291,18.042,5.291c21.649,0,33.487-17.935,33.487-33.488c0-0.511-0.012-1.019-0.034-1.522
	C-774.926,7.211-772.93,5.138-771.354,2.779z"/>
<path fill="#999999" d="M-680.393,36.856c0-0.422-0.046-0.832-0.137-1.225c-0.091-0.394-0.185-0.756-0.287-1.091
	c-0.102-0.333-0.276-0.68-0.53-1.042c-0.252-0.365-0.464-0.672-0.635-0.925c-0.172-0.252-0.439-0.549-0.803-0.892
	c-0.362-0.345-0.641-0.602-0.832-0.771c-0.191-0.173-0.514-0.431-0.969-0.771c-0.455-0.345-0.768-0.575-0.938-0.698
	c-0.173-0.12-0.504-0.352-0.999-0.695c-0.495-0.344-0.803-0.556-0.924-0.636c-0.343-0.04-0.847-0.062-1.515-0.062
	c-1.088,0-2.157,0.071-3.207,0.212c-1.05,0.142-2.139,0.394-3.269,0.758c-1.131,0.362-2.119,0.827-2.968,1.391
	c-0.846,0.565-1.543,1.322-2.087,2.271c-0.544,0.947-0.817,2.027-0.817,3.237c0,1.374,0.358,2.599,1.073,3.68
	c0.717,1.079,1.656,1.926,2.814,2.542c1.162,0.615,2.377,1.073,3.649,1.377c1.271,0.301,2.551,0.453,3.843,0.453
	c1.19,0,2.327-0.127,3.406-0.379s2.093-0.646,3.042-1.181c0.948-0.535,1.7-1.275,2.255-2.222
	C-680.67,39.238-680.393,38.127-680.393,36.856z M-684.025,10.766c0-1.211-0.166-2.497-0.499-3.858s-0.808-2.679-1.423-3.95
	c-0.614-1.272-1.462-2.321-2.542-3.147c-1.079-0.828-2.285-1.243-3.618-1.243c-1.875,0-3.328,0.698-4.357,2.089
	c-1.028,1.393-1.544,3.057-1.544,4.994c0,0.95,0.116,1.947,0.348,2.997c0.232,1.048,0.591,2.098,1.075,3.148
	c0.483,1.048,1.048,1.992,1.695,2.83c0.646,0.838,1.433,1.519,2.361,2.043c0.927,0.525,1.906,0.787,2.935,0.787
	c1.957,0,3.374-0.61,4.254-1.831C-684.464,14.402-684.025,12.784-684.025,10.766z M-687.991-3.612h13.228l-4.085,2.392h-4.086
	c1.433,0.908,2.542,2.18,3.33,3.815c0.786,1.634,1.181,3.338,1.181,5.115c0,1.492-0.234,2.819-0.698,3.979
	c-0.464,1.161-1.028,2.094-1.694,2.799c-0.667,0.707-1.331,1.358-1.998,1.952c-0.665,0.597-1.23,1.211-1.693,1.848
	c-0.465,0.637-0.698,1.316-0.698,2.042c0,0.524,0.166,1.041,0.501,1.545c0.333,0.504,0.767,0.987,1.301,1.451
	c0.534,0.464,1.125,0.95,1.771,1.454s1.291,1.063,1.938,1.68c0.644,0.616,1.234,1.28,1.77,1.996
	c0.535,0.716,0.969,1.574,1.302,2.573c0.334,1,0.5,2.075,0.5,3.225c0,3.228-1.412,6.073-4.237,8.535
	c-3.067,2.643-7.306,3.964-12.714,3.964c-1.188,0-2.394-0.1-3.616-0.301c-1.22-0.203-2.452-0.541-3.693-1.015
	c-1.238-0.473-2.334-1.061-3.283-1.755c-0.948-0.696-1.725-1.596-2.33-2.695c-0.605-1.099-0.908-2.325-0.908-3.678
	c0-1.229,0.374-2.591,1.12-4.085c0.646-1.292,1.614-2.407,2.905-3.345s2.754-1.654,4.391-2.148c1.634-0.495,3.196-0.858,4.69-1.09
	s3.006-0.368,4.54-0.409c-1.291-1.673-1.937-3.177-1.937-4.51c0-0.241,0.019-0.479,0.059-0.711c0.042-0.23,0.092-0.427,0.152-0.59
	c0.06-0.161,0.141-0.378,0.241-0.65c0.102-0.272,0.172-0.49,0.212-0.65c-0.805,0.1-1.513,0.15-2.118,0.15
	c-3.006,0-5.584-0.99-7.734-2.967c-2.148-1.977-3.221-4.46-3.221-7.445c0-2.825,0.956-5.352,2.874-7.582
	c1.918-2.23,4.278-3.657,7.082-4.284C-691.753-3.409-689.866-3.612-687.991-3.612z M-656.542,4.138v3.874h-7.748v7.75h-3.875v-7.75
	h-7.748V4.138h7.748v-7.75h3.875v7.75H-656.542z"/>
<path fill="#999999" d="M-567.598,30.039c-1.539,8.072-3.418,15.814-8.99,19.856c-1.719-12.203,2.525-21.366,4.494-31.096
	c-3.359-5.659,0.404-17.043,7.495-14.236c8.724,3.45-7.553,21.034,3.372,23.229c11.411,2.294,16.067-19.792,8.995-26.973
	c-10.223-10.377-29.759-0.244-27.354,14.604c0.583,3.63,4.335,4.732,1.5,9.74c-6.544-1.446-8.494-6.608-8.244-13.488
	c0.404-11.257,10.116-19.14,19.857-20.231c12.323-1.379,23.886,4.523,25.478,16.112c1.799,13.079-5.559,27.243-18.735,26.224
	C-563.299,33.507-564.799,31.739-567.598,30.039z"/>
<circle fill="#EDEDED" cx="-209.489" cy="20.571" r="56.888"/>
<path fill="#999999" d="M-222.424,0.315c0,2.79-2.061,5.053-5.451,5.053c-3.193,0-5.254-2.263-5.254-5.053
	c0-2.86,2.131-5.057,5.387-5.057C-224.484-4.742-222.488-2.545-222.424,0.315z M-232.861,41.88V9.359h10.107V41.88H-232.861z
	 M-216.705,19.734c0-4.058-0.133-7.448-0.268-10.375h8.779l0.467,4.525h0.201c1.328-2.13,4.588-5.255,10.041-5.255
	c6.648,0,11.637,4.455,11.637,14.033v19.22h-10.107V23.861c0-4.191-1.467-7.051-5.123-7.051c-2.791,0-4.451,1.928-5.186,3.789
	c-0.268,0.664-0.332,1.596-0.332,2.528v18.755h-10.109V19.734z"/>
<circle fill="#EDEDED" cx="-91.322" cy="20.571" r="56.888"/>
<circle fill="#999999" cx="-918.36" cy="139.186" r="56.887"/>
<path fill-rule="evenodd" clip-rule="evenodd" fill="#EDEDED" d="M-926.687,142.238v25.944h12.622v-25.821h8.615l2.086-10.765
	h-10.613c0,0,0-5.064,0-7.895c0-1.09,0.584-2.547,2.348-2.547c2.721,0,6.135,0,6.135,0v-10.965c0,0-5.527,0-11.451,0
	c-3.954,0-9.786,4.867-9.786,10.043c0,5.326,0,11.061,0,11.061h-6.621v10.9L-926.687,142.238z"/>
<circle fill="#999999" cx="-800.038" cy="139.185" r="56.888"/>
<circle fill="#999999" cx="-681.726" cy="139.187" r="56.888"/>
<circle fill="#999999" cx="-445.845" cy="139.188" r="56.888"/>
<circle fill="#999999" cx="-327.539" cy="139.188" r="56.888"/>
<path fill="#EDEDED" d="M-311.569,139.188c0,8.82-7.152,15.968-15.969,15.968c-8.82,0-15.969-7.147-15.969-15.968
	c0-1.053,0.105-2.076,0.301-3.07h-10.742v21.226c0,4.557,3.693,8.254,8.256,8.254h36.309c4.557,0,8.254-3.693,8.254-8.254v-21.226
	h-10.738C-311.675,137.112-311.569,138.135-311.569,139.188z M-309.384,112.78h-36.309c-4.561,0-8.256,3.697-8.256,8.254v8.939
	h13.371c2.891-4.08,7.652-6.752,13.039-6.752s10.148,2.672,13.037,6.752h13.371v-8.939
	C-301.13,116.477-304.827,112.78-309.384,112.78z M-305.347,122.975c0,0.812-0.662,1.473-1.473,1.473h-4.418
	c-0.812,0-1.475-0.664-1.475-1.473v-4.424c0-0.811,0.666-1.473,1.475-1.473h4.418c0.812,0,1.473,0.662,1.473,1.473V122.975z
	 M-317.712,139.188c0-5.43-4.4-9.826-9.826-9.826s-9.828,4.396-9.828,9.826c0,5.428,4.402,9.826,9.828,9.826
	S-317.712,144.616-317.712,139.188z"/>
<circle fill="#999999" cx="-563.54" cy="139.186" r="56.888"/>
<path fill="#EDEDED" d="M-457.982,147.585c-3.125,0-5.664,2.549-5.664,5.652c0,3.123,2.539,5.643,5.664,5.643
	c3.135,0,5.67-2.52,5.67-5.643C-452.312,150.134-454.848,147.585-457.982,147.585z M-463.641,130.841v8.154
	c5.311,0,10.303,2.076,14.062,5.838c3.756,3.752,5.828,8.768,5.828,14.098h8.189C-435.561,143.44-448.158,130.841-463.641,130.841z
	 M-463.631,116.385v8.159c18.938,0,34.35,15.427,34.35,34.387h8.18C-421.102,135.477-440.182,116.385-463.631,116.385z"/>
<path fill="#EDEDED" d="M-771.354,121.394c-2.109,0.934-4.377,1.568-6.758,1.852c2.43-1.457,4.296-3.762,5.175-6.51
	c-2.276,1.35-4.793,2.328-7.476,2.854c-2.146-2.285-5.204-3.715-8.591-3.715c-6.5,0-11.77,5.271-11.77,11.77
	c0,0.922,0.105,1.82,0.304,2.682c-9.78-0.49-18.452-5.176-24.258-12.297c-1.013,1.738-1.593,3.76-1.593,5.918
	c0,4.082,2.077,7.686,5.235,9.797c-1.931-0.064-3.743-0.594-5.33-1.475c-0.003,0.049-0.003,0.1-0.003,0.148
	c0,5.703,4.059,10.461,9.443,11.541c-0.987,0.268-2.027,0.414-3.103,0.414c-0.758,0-1.495-0.074-2.213-0.213
	c1.497,4.676,5.844,8.08,10.995,8.174c-4.03,3.158-9.104,5.039-14.619,5.039c-0.949,0-1.887-0.055-2.808-0.166
	c5.21,3.34,11.396,5.291,18.042,5.291c21.649,0,33.487-17.936,33.487-33.488c0-0.512-0.012-1.02-0.034-1.523
	C-774.926,125.826-772.93,123.753-771.354,121.394z"/>
<path fill="#EDEDED" d="M-680.393,155.471c0-0.422-0.046-0.832-0.137-1.225c-0.091-0.395-0.185-0.756-0.287-1.092
	c-0.102-0.332-0.276-0.68-0.53-1.041c-0.252-0.365-0.464-0.672-0.635-0.926c-0.172-0.252-0.439-0.549-0.803-0.893
	c-0.362-0.344-0.641-0.601-0.832-0.771c-0.191-0.172-0.514-0.43-0.969-0.772c-0.455-0.343-0.768-0.574-0.938-0.697
	c-0.173-0.121-0.504-0.352-0.999-0.695s-0.803-0.557-0.924-0.637c-0.343-0.039-0.847-0.061-1.515-0.061
	c-1.088,0-2.157,0.07-3.207,0.211c-1.05,0.143-2.139,0.395-3.269,0.76c-1.131,0.361-2.119,0.827-2.968,1.391
	c-0.846,0.565-1.543,1.32-2.087,2.271c-0.544,0.945-0.817,2.027-0.817,3.236c0,1.375,0.358,2.6,1.073,3.68
	c0.717,1.08,1.656,1.926,2.814,2.543c1.162,0.615,2.377,1.072,3.649,1.377c1.271,0.301,2.551,0.453,3.843,0.453
	c1.19,0,2.327-0.127,3.406-0.379s2.093-0.646,3.042-1.182c0.948-0.535,1.7-1.275,2.255-2.223
	C-680.67,157.852-680.393,156.743-680.393,155.471z M-684.025,129.38c0-1.211-0.166-2.496-0.499-3.858
	c-0.333-1.361-0.808-2.68-1.423-3.949c-0.614-1.273-1.462-2.322-2.542-3.148c-1.079-0.828-2.285-1.242-3.618-1.242
	c-1.875,0-3.328,0.697-4.357,2.09c-1.028,1.393-1.544,3.057-1.544,4.992c0,0.951,0.116,1.947,0.348,2.999
	c0.232,1.049,0.591,2.098,1.075,3.148c0.483,1.047,1.048,1.992,1.695,2.828c0.646,0.838,1.433,1.52,2.361,2.043
	c0.927,0.525,1.906,0.787,2.935,0.787c1.957,0,3.374-0.609,4.254-1.83C-684.464,133.017-684.025,131.4-684.025,129.38z
	 M-687.991,115.003h13.228l-4.085,2.393h-4.086c1.433,0.908,2.542,2.18,3.33,3.814c0.786,1.632,1.181,3.337,1.181,5.115
	c0,1.492-0.234,2.818-0.698,3.979c-0.464,1.162-1.028,2.094-1.694,2.799c-0.667,0.707-1.331,1.359-1.998,1.953
	c-0.665,0.596-1.23,1.211-1.693,1.848c-0.465,0.637-0.698,1.314-0.698,2.041c0,0.525,0.166,1.041,0.501,1.545
	c0.333,0.504,0.767,0.988,1.301,1.451c0.534,0.465,1.125,0.951,1.771,1.455c0.646,0.503,1.291,1.062,1.938,1.679
	c0.644,0.615,1.234,1.281,1.77,1.996c0.535,0.717,0.969,1.574,1.302,2.572c0.334,1,0.5,2.076,0.5,3.226
	c0,3.227-1.412,6.072-4.237,8.533c-3.067,2.643-7.306,3.965-12.714,3.965c-1.188,0-2.394-0.1-3.616-0.301
	c-1.22-0.203-2.452-0.541-3.693-1.016c-1.238-0.473-2.334-1.061-3.283-1.754c-0.948-0.697-1.725-1.596-2.33-2.695
	c-0.605-1.098-0.908-2.324-0.908-3.678c0-1.229,0.374-2.592,1.12-4.086c0.646-1.291,1.614-2.405,2.905-3.343
	c1.291-0.938,2.754-1.655,4.391-2.149c1.634-0.496,3.196-0.857,4.69-1.089s3.006-0.367,4.54-0.41
	c-1.291-1.671-1.937-3.175-1.937-4.509c0-0.24,0.019-0.479,0.059-0.711c0.042-0.23,0.092-0.426,0.152-0.59
	c0.06-0.162,0.141-0.379,0.241-0.65c0.102-0.271,0.172-0.49,0.212-0.65c-0.805,0.1-1.513,0.15-2.118,0.15
	c-3.006,0-5.584-0.99-7.734-2.967c-2.148-1.977-3.221-4.459-3.221-7.445c0-2.825,0.956-5.352,2.874-7.58
	c1.918-2.23,4.278-3.658,7.082-4.285C-691.753,115.207-689.866,115.003-687.991,115.003z M-656.542,122.753v3.874h-7.748v7.75
	h-3.875v-7.75h-7.748v-3.874h7.748v-7.75h3.875v7.75H-656.542z"/>
<path fill="#EDEDED" d="M-567.598,148.653c-1.539,8.073-3.418,15.815-8.99,19.858c-1.719-12.203,2.525-21.368,4.494-31.097
	c-3.359-5.66,0.404-17.042,7.494-14.235c8.725,3.449-7.553,21.032,3.373,23.228c11.41,2.293,16.066-19.792,8.994-26.972
	c-10.223-10.377-29.758-0.244-27.354,14.603c0.582,3.631,4.334,4.732,1.5,9.74c-6.545-1.445-8.494-6.606-8.244-13.488
	c0.404-11.255,10.115-19.138,19.857-20.229c12.322-1.379,23.885,4.523,25.477,16.111c1.799,13.079-5.559,27.244-18.734,26.224
	C-563.299,152.122-564.799,150.354-567.598,148.653z"/>
<circle fill="#999999" cx="-209.489" cy="139.185" r="56.888"/>
<path fill="#EDEDED" d="M-222.424,118.93c0,2.791-2.061,5.052-5.451,5.052c-3.193,0-5.254-2.262-5.254-5.052
	c0-2.859,2.131-5.057,5.387-5.057C-224.484,113.874-222.488,116.071-222.424,118.93z M-232.861,160.496v-32.521h10.107v32.521
	H-232.861z M-216.705,138.349c0-4.059-0.133-7.449-0.268-10.375h8.779l0.467,4.525h0.201c1.328-2.13,4.588-5.255,10.041-5.255
	c6.648,0,11.637,4.455,11.637,14.033v19.221h-10.107v-18.021c0-4.192-1.467-7.051-5.123-7.051c-2.791,0-4.451,1.928-5.186,3.789
	c-0.268,0.664-0.332,1.596-0.332,2.528v18.755h-10.109V138.349z"/>
<path fill="#999999" d="M-34.434,139.184c0,31.419-25.469,56.89-56.887,56.89s-56.889-25.471-56.889-56.89
	c0-31.416,25.471-56.885,56.889-56.885S-34.434,107.768-34.434,139.184z"/>
<polygon fill="#999999" points="-91.322,32.071 -91.322,32.073 -91.322,32.071 -125.44,7.809 -125.44,45.022 -57.204,45.022 
	-57.204,7.809 "/>
<polygon fill="#999999" points="-57.548,1.35 -125.098,1.35 -91.323,25.299 "/>
<polygon fill="#EDEDED" points="-91.322,148.072 -91.322,148.074 -91.322,148.072 -125.44,123.81 -125.44,161.023 -57.204,161.023 
	-57.204,123.81 "/>
<polygon fill="#EDEDED" points="-57.548,117.351 -125.098,117.351 -91.323,141.3 "/>
<g>
	<defs>
		<rect id="SVGID_3_" x="-1723.371" y="66.978" width="289.242" height="156.91"/>
	</defs>
	<clipPath id="SVGID_4_">
		<use xlink:href="#SVGID_3_"  overflow="visible"/>
	</clipPath>
	<path clip-path="url(#SVGID_4_)" fill="#1D1D1B" d="M-1464.861,156.269v-7.654h3.986c1.199,0,2.143,0.345,2.828,1.037
		c0.686,0.692,1.029,1.63,1.029,2.811c0,1.098-0.343,2.007-1.029,2.726c-0.685,0.724-1.629,1.081-2.828,1.081H-1464.861z
		 M-1471.162,172.104h6.301v-10.599h3.601l5.314,10.599h7.116l-6.345-11.55c1.487-0.836,2.637-1.953,3.452-3.354
		c0.813-1.397,1.22-3.034,1.22-4.91c0-1.238-0.208-2.406-0.621-3.503c-0.416-1.097-1.044-2.055-1.887-2.878
		c-0.843-0.823-1.894-1.471-3.149-1.946c-1.258-0.475-2.715-0.714-4.372-0.714h-10.629V172.104z M-1497.094,172.104h20.488v-5.753
		h-14.016v-6.23h10.157v-5.536h-10.157v-5.625h13.074v-5.711h-19.546V172.104z M-1525.51,168.04
		c0.542,0.603,1.192,1.196,1.949,1.771c0.758,0.581,1.607,1.091,2.552,1.538c0.942,0.446,2,0.807,3.17,1.081
		c1.172,0.274,2.472,0.412,3.901,0.412c1.542,0,2.978-0.224,4.307-0.67c1.328-0.45,2.486-1.075,3.472-1.883
		c0.985-0.808,1.764-1.761,2.336-2.855c0.572-1.098,0.857-2.294,0.857-3.59c0-1.499-0.243-2.775-0.728-3.831
		c-0.486-1.05-1.129-1.938-1.93-2.661c-0.8-0.718-1.707-1.302-2.721-1.749c-1.015-0.449-2.05-0.801-3.107-1.062
		c-1.8-0.401-3.215-0.906-4.245-1.512c-1.029-0.606-1.542-1.401-1.542-2.38c0-0.376,0.106-0.728,0.32-1.059
		c0.214-0.332,0.5-0.623,0.857-0.868c0.358-0.242,0.757-0.437,1.201-0.581c0.443-0.147,0.892-0.217,1.349-0.217
		c0.687,0,1.336,0.086,1.951,0.258s1.179,0.389,1.692,0.647c0.515,0.262,0.979,0.542,1.394,0.846
		c0.416,0.303,0.779,0.584,1.093,0.842l3.73-4.151c-0.256-0.262-0.638-0.613-1.135-1.062c-0.502-0.447-1.144-0.877-1.93-1.299
		c-0.786-0.415-1.736-0.775-2.851-1.082c-1.114-0.3-2.399-0.453-3.856-0.453c-1.772,0-3.308,0.239-4.608,0.715
		c-1.301,0.476-2.387,1.126-3.257,1.946c-0.873,0.823-1.521,1.768-1.95,2.833c-0.429,1.068-0.642,2.208-0.642,3.42
		c0,1.095,0.184,2.09,0.557,2.983c0.371,0.894,0.892,1.688,1.563,2.38c0.671,0.692,1.472,1.283,2.401,1.771
		c0.928,0.494,1.936,0.867,3.021,1.126c2.229,0.577,3.857,1.161,4.887,1.755c1.027,0.59,1.542,1.42,1.542,2.485
		c0,0.491-0.121,0.932-0.364,1.32c-0.244,0.387-0.564,0.722-0.964,0.993c-0.4,0.274-0.843,0.484-1.33,0.628
		c-0.485,0.147-0.97,0.217-1.457,0.217c-0.828,0-1.607-0.108-2.335-0.325c-0.729-0.217-1.4-0.498-2.015-0.846
		c-0.614-0.345-1.171-0.724-1.671-1.142c-0.5-0.418-0.936-0.833-1.307-1.235L-1525.51,168.04z M-1542.14,172.104h6.558v-12.111
		l10.03-16.744h-7.029l-6.045,10.902l-6.213-10.902h-7.331l10.03,16.785V172.104z M-1566.183,160.423l3.558-10.902l3.471,10.902
		H-1566.183z M-1576.642,172.104h6.773l2.187-6.617h10.073l2.186,6.617h7.072l-10.459-28.855h-7.156L-1576.642,172.104z
		 M-1603.445,172.104h6.472v-9.301l2.916-3.286l7.629,12.587h7.842l-11.142-17.608l9.814-11.247h-7.501l-9.558,11.509v-11.509
		h-6.472V172.104z M-1621.146,162.717c-0.429,0.491-0.873,0.974-1.328,1.448c-0.458,0.476-0.98,0.897-1.565,1.254
		c-0.587,0.361-1.258,0.651-2.014,0.868c-0.759,0.214-1.65,0.322-2.679,0.322c-1.258,0-2.387-0.229-3.387-0.692
		c-0.999-0.459-1.857-1.095-2.571-1.901c-0.714-0.808-1.264-1.762-1.65-2.855c-0.385-1.098-0.579-2.278-0.579-3.548
		c0-1.241,0.193-2.416,0.579-3.526c0.386-1.11,0.936-2.083,1.65-2.922c0.714-0.836,1.586-1.49,2.614-1.968
		c1.029-0.476,2.187-0.711,3.473-0.711c1.628,0,3.029,0.367,4.2,1.104c1.171,0.733,2.186,1.707,3.043,2.919l4.414-4.285
		c-1.312-1.844-2.963-3.258-4.949-4.237c-1.987-0.982-4.308-1.471-6.966-1.471c-2.201,0-4.208,0.396-6.021,1.19
		c-1.814,0.792-3.372,1.873-4.672,3.242c-1.3,1.372-2.308,2.986-3.022,4.846c-0.714,1.86-1.072,3.857-1.072,5.992
		c0,2.192,0.358,4.205,1.072,6.037c0.714,1.831,1.722,3.417,3.022,4.757c1.3,1.343,2.851,2.387,4.65,3.137
		c1.8,0.749,3.786,1.126,5.958,1.126c1.314,0,2.578-0.16,3.794-0.476c1.214-0.319,2.342-0.75,3.386-1.299
		c1.042-0.549,1.993-1.189,2.851-1.927c0.856-0.734,1.585-1.519,2.186-2.354L-1621.146,162.717z M-1655.649,172.104h6.472v-28.855
		h-6.472V172.104z M-1676.437,156.269v-7.654h3.986c1.199,0,2.143,0.345,2.828,1.037c0.686,0.692,1.03,1.63,1.03,2.811
		c0,1.098-0.344,2.007-1.03,2.726c-0.685,0.724-1.629,1.081-2.828,1.081H-1676.437z M-1682.737,172.104h6.301v-10.599h3.601
		l5.314,10.599h7.116l-6.345-11.55c1.486-0.836,2.636-1.953,3.452-3.354c0.813-1.397,1.22-3.034,1.22-4.91
		c0-1.238-0.208-2.406-0.621-3.503c-0.415-1.097-1.044-2.055-1.887-2.878c-0.842-0.823-1.893-1.471-3.149-1.946
		c-1.258-0.475-2.715-0.714-4.372-0.714h-10.629V172.104z M-1708.669,172.104h20.488v-5.753h-14.016v-6.23h10.158v-5.536h-10.158
		v-5.625h13.073v-5.711h-19.545V172.104z"/>
	<path clip-path="url(#SVGID_4_)" fill="#1D1D1B" d="M-1560.883,221.683c0.249,0.277,0.548,0.549,0.896,0.813
		c0.348,0.268,0.738,0.501,1.171,0.705c0.433,0.207,0.92,0.373,1.458,0.497c0.539,0.125,1.135,0.188,1.792,0.188
		c0.708,0,1.369-0.102,1.979-0.306c0.611-0.205,1.141-0.495,1.594-0.865c0.454-0.37,0.811-0.811,1.073-1.312
		c0.263-0.504,0.394-1.056,0.394-1.652c0-0.686-0.111-1.273-0.333-1.755c-0.224-0.485-0.519-0.891-0.887-1.222
		c-0.368-0.332-0.784-0.601-1.25-0.808c-0.466-0.204-0.943-0.367-1.428-0.485c-0.826-0.185-1.477-0.418-1.949-0.698
		c-0.472-0.277-0.709-0.642-0.709-1.091c0-0.173,0.049-0.335,0.146-0.488c0.1-0.15,0.23-0.284,0.394-0.396
		c0.166-0.112,0.348-0.204,0.552-0.269c0.203-0.066,0.41-0.099,0.619-0.099c0.316,0,0.614,0.038,0.897,0.118
		c0.283,0.079,0.541,0.179,0.778,0.297c0.237,0.121,0.449,0.248,0.64,0.389c0.19,0.141,0.356,0.269,0.502,0.39l1.713-1.908
		c-0.119-0.121-0.292-0.284-0.522-0.488c-0.229-0.207-0.524-0.405-0.886-0.597s-0.797-0.357-1.31-0.497
		c-0.511-0.138-1.103-0.208-1.771-0.208c-0.815,0-1.521,0.108-2.118,0.329c-0.597,0.217-1.096,0.517-1.496,0.893
		c-0.4,0.377-0.699,0.811-0.895,1.302c-0.198,0.492-0.296,1.012-0.296,1.57c0,0.504,0.085,0.96,0.255,1.372
		c0.172,0.411,0.412,0.775,0.719,1.091c0.309,0.319,0.677,0.591,1.103,0.817c0.427,0.223,0.891,0.396,1.389,0.514
		c1.024,0.268,1.772,0.535,2.245,0.807s0.709,0.654,0.709,1.143c0,0.227-0.056,0.428-0.168,0.606
		c-0.111,0.179-0.258,0.331-0.442,0.456c-0.183,0.127-0.387,0.224-0.609,0.29c-0.224,0.067-0.448,0.099-0.67,0.099
		c-0.381,0-0.738-0.051-1.073-0.149s-0.644-0.227-0.924-0.39c-0.283-0.156-0.539-0.332-0.77-0.526
		c-0.229-0.191-0.429-0.38-0.599-0.564L-1560.883,221.683z M-1566.966,223.549h2.973v-13.254h-2.973V223.549z M-1577.5,216.278
		v-3.52h1.831c0.55,0,0.984,0.16,1.299,0.479c0.315,0.316,0.472,0.75,0.472,1.293c0,0.501-0.157,0.919-0.472,1.25
		c-0.315,0.332-0.749,0.498-1.299,0.498H-1577.5z M-1580.395,223.549h2.895v-4.866h1.653l2.442,4.866h3.267l-2.913-5.306
		c0.681-0.383,1.21-0.897,1.584-1.538c0.374-0.645,0.561-1.395,0.561-2.256c0-0.571-0.095-1.107-0.284-1.611
		c-0.192-0.504-0.481-0.944-0.868-1.321c-0.387-0.376-0.869-0.673-1.447-0.893c-0.577-0.221-1.247-0.329-2.008-0.329h-4.883V223.549
		z M-1591.498,218.182l1.633-5.006l1.595,5.006H-1591.498z M-1596.302,223.549h3.11l1.005-3.037h4.626l1.004,3.037h3.247
		l-4.803-13.254h-3.288L-1596.302,223.549z M-1603.449,216.457v-3.717h1.712c0.552,0,0.991,0.175,1.32,0.526
		c0.328,0.351,0.491,0.804,0.491,1.362c0,0.542-0.159,0.982-0.481,1.321c-0.322,0.338-0.758,0.507-1.31,0.507H-1603.449z
		 M-1606.343,223.549h2.895v-4.668h2.027c0.592,0,1.155-0.093,1.694-0.277c0.538-0.188,1.013-0.46,1.426-0.817
		c0.415-0.357,0.742-0.804,0.985-1.34s0.364-1.164,0.364-1.879c0-0.556-0.088-1.095-0.266-1.608
		c-0.176-0.517-0.453-0.973-0.827-1.362s-0.849-0.705-1.427-0.944c-0.577-0.239-1.273-0.357-2.086-0.357h-4.784V223.549z"/>
	<path clip-path="url(#SVGID_4_)" fill="#1D1D1B" d="M-1473.693,193.567v-3.519h1.831c0.552,0,0.985,0.159,1.3,0.475
		c0.313,0.319,0.472,0.75,0.472,1.293c0,0.504-0.159,0.922-0.472,1.254c-0.315,0.328-0.748,0.497-1.3,0.497H-1473.693z
		 M-1476.588,200.838h2.895v-4.869h1.655l2.44,4.869h3.27l-2.915-5.306c0.683-0.383,1.21-0.896,1.584-1.541
		c0.374-0.642,0.562-1.392,0.562-2.256c0-0.568-0.096-1.104-0.285-1.608c-0.191-0.504-0.479-0.944-0.866-1.32
		c-0.387-0.38-0.871-0.677-1.447-0.894c-0.578-0.22-1.248-0.329-2.008-0.329h-4.885V200.838z M-1489.483,200.838h9.412v-2.642
		h-6.438v-2.862h4.667v-2.543h-4.667v-2.584h6.005v-2.623h-8.979V200.838z M-1498.401,195.969h2.323v1.669
		c-0.341,0.281-0.729,0.482-1.162,0.606c-0.432,0.128-0.913,0.188-1.437,0.188c-0.566,0-1.086-0.1-1.565-0.297
		c-0.48-0.198-0.897-0.479-1.252-0.843c-0.354-0.366-0.628-0.807-0.826-1.324c-0.196-0.517-0.296-1.091-0.296-1.729
		c0-0.584,0.087-1.133,0.257-1.646c0.17-0.521,0.419-0.97,0.748-1.353c0.328-0.387,0.729-0.689,1.201-0.916
		c0.474-0.224,1.011-0.338,1.616-0.338c0.733,0,1.354,0.159,1.86,0.479c0.505,0.318,0.968,0.728,1.387,1.231l2.009-1.928
		c-0.591-0.794-1.336-1.413-2.235-1.856c-0.899-0.446-1.947-0.667-3.141-0.667c-1.011,0-1.929,0.179-2.756,0.536
		c-0.826,0.357-1.542,0.852-2.146,1.48c-0.603,0.629-1.069,1.369-1.398,2.214c-0.327,0.849-0.492,1.771-0.492,2.764
		c0,1.021,0.153,1.955,0.462,2.801c0.309,0.849,0.758,1.58,1.35,2.189c0.591,0.609,1.308,1.081,2.156,1.419
		c0.846,0.339,1.807,0.508,2.883,0.508c1.168,0,2.209-0.163,3.122-0.488c0.911-0.322,1.708-0.785,2.392-1.382v-5.743h-5.06V195.969z
		 M-1520.689,200.838h2.934v-8.765l5.829,8.765h2.697v-13.254h-2.934v8.603l-5.689-8.603h-2.836V200.838z M-1531.793,195.472
		l1.634-5.006l1.594,5.006H-1531.793z M-1536.597,200.838h3.11l1.005-3.04h4.626l1.004,3.04h3.25l-4.805-13.254h-3.288
		L-1536.597,200.838z M-1548.233,200.838h9.254v-2.661h-6.281v-10.593h-2.973V200.838z M-1563.197,195.81
		c0,0.798,0.129,1.525,0.385,2.186c0.256,0.664,0.624,1.235,1.102,1.71c0.48,0.479,1.06,0.846,1.743,1.104
		c0.683,0.258,1.444,0.386,2.284,0.386c0.84,0,1.601-0.131,2.284-0.396c0.683-0.265,1.263-0.635,1.744-1.104
		c0.479-0.47,0.845-1.037,1.102-1.701c0.254-0.66,0.384-1.388,0.384-2.186v-8.226h-3.012v7.85c0,0.437-0.043,0.832-0.129,1.184
		c-0.085,0.351-0.226,0.65-0.423,0.902c-0.196,0.252-0.456,0.447-0.778,0.588c-0.322,0.137-0.712,0.207-1.171,0.207
		c-0.472,0-0.869-0.07-1.191-0.207c-0.322-0.141-0.582-0.336-0.778-0.588c-0.197-0.252-0.338-0.552-0.423-0.902
		c-0.087-0.352-0.129-0.747-0.129-1.184v-7.85h-2.993V195.81z M-1575.019,198.018c-0.466-0.227-0.859-0.529-1.181-0.916
		c-0.322-0.383-0.569-0.826-0.739-1.33c-0.171-0.504-0.256-1.04-0.256-1.608c0-0.571,0.084-1.106,0.256-1.611
		c0.17-0.504,0.417-0.944,0.739-1.32c0.322-0.38,0.715-0.677,1.181-0.896c0.466-0.217,0.988-0.326,1.565-0.326
		c0.578,0,1.096,0.109,1.556,0.326c0.46,0.22,0.849,0.517,1.171,0.896c0.321,0.376,0.568,0.816,0.738,1.32
		c0.172,0.505,0.256,1.04,0.256,1.611c0,0.568-0.084,1.104-0.256,1.608c-0.17,0.504-0.417,0.947-0.738,1.33
		c-0.322,0.387-0.711,0.689-1.171,0.916c-0.459,0.227-0.978,0.335-1.556,0.335C-1574.031,198.353-1574.553,198.245-1575.019,198.018
		 M-1570.748,200.641c0.835-0.357,1.557-0.849,2.167-1.472c0.611-0.622,1.089-1.362,1.437-2.214
		c0.348-0.855,0.522-1.773,0.522-2.754c0-0.992-0.174-1.914-0.522-2.763c-0.348-0.849-0.826-1.582-1.437-2.204
		c-0.609-0.623-1.332-1.114-2.167-1.472c-0.833-0.36-1.735-0.536-2.707-0.536c-0.972,0-1.874,0.176-2.707,0.536
		c-0.833,0.357-1.555,0.849-2.166,1.472c-0.609,0.622-1.09,1.355-1.438,2.204c-0.348,0.849-0.521,1.771-0.521,2.763
		c0,0.98,0.173,1.898,0.521,2.754c0.349,0.852,0.829,1.592,1.438,2.214c0.611,0.623,1.333,1.114,2.166,1.472
		c0.833,0.357,1.735,0.536,2.707,0.536C-1572.482,201.177-1571.581,200.999-1570.748,200.641 M-1590.445,198.535v-3.458h1.929
		c0.224,0,0.466,0.022,0.729,0.07c0.263,0.044,0.505,0.131,0.729,0.258c0.224,0.125,0.407,0.3,0.55,0.526
		c0.146,0.224,0.218,0.518,0.218,0.874c0,0.396-0.076,0.709-0.228,0.933c-0.15,0.226-0.338,0.398-0.56,0.52
		c-0.224,0.118-0.466,0.194-0.729,0.227c-0.263,0.035-0.499,0.051-0.709,0.051H-1590.445z M-1590.445,192.891v-2.983h1.752
		c0.209,0,0.424,0.025,0.639,0.07c0.217,0.048,0.41,0.127,0.582,0.239c0.17,0.111,0.309,0.265,0.413,0.456s0.157,0.434,0.157,0.728
		c0,0.277-0.053,0.514-0.157,0.705s-0.24,0.345-0.404,0.456c-0.165,0.112-0.354,0.194-0.572,0.249
		c-0.215,0.055-0.436,0.08-0.658,0.08H-1590.445z M-1593.339,200.838h4.921c0.787,0,1.5-0.07,2.137-0.207
		c0.637-0.141,1.174-0.364,1.613-0.667c0.439-0.307,0.781-0.695,1.024-1.171c0.244-0.479,0.364-1.062,0.364-1.752
		c0-0.529-0.095-0.989-0.286-1.378c-0.189-0.393-0.423-0.718-0.699-0.977c-0.274-0.255-0.566-0.456-0.875-0.594
		c-0.31-0.14-0.581-0.235-0.817-0.29c0.156-0.038,0.351-0.124,0.58-0.259c0.229-0.13,0.447-0.312,0.65-0.545
		c0.204-0.233,0.38-0.511,0.532-0.836c0.15-0.322,0.226-0.699,0.226-1.12c0-0.453-0.078-0.887-0.235-1.302
		c-0.159-0.418-0.415-0.788-0.768-1.104c-0.354-0.319-0.815-0.575-1.378-0.767c-0.565-0.191-1.255-0.287-2.068-0.287h-4.921V200.838
		z M-1613.874,200.838h2.932v-8.765l5.829,8.765h2.697v-13.254h-2.934v8.603l-5.69-8.603h-2.834V200.838z M-1624.979,195.472
		l1.635-5.006l1.595,5.006H-1624.979z M-1629.783,200.838h3.112l1.003-3.04h4.628l1.002,3.04h3.25l-4.805-13.254h-3.288
		L-1629.783,200.838z M-1642.364,198.969c0.248,0.28,0.547,0.552,0.895,0.816c0.349,0.265,0.739,0.501,1.172,0.705
		c0.435,0.207,0.919,0.37,1.457,0.498c0.539,0.124,1.135,0.188,1.792,0.188c0.709,0,1.369-0.103,1.978-0.31
		c0.611-0.205,1.142-0.492,1.596-0.862c0.453-0.373,0.81-0.81,1.072-1.314c0.263-0.501,0.393-1.053,0.393-1.649
		c0-0.686-0.111-1.272-0.333-1.758c-0.224-0.481-0.52-0.89-0.888-1.222c-0.367-0.332-0.784-0.6-1.249-0.805
		c-0.466-0.207-0.943-0.366-1.428-0.487c-0.827-0.183-1.478-0.415-1.949-0.696c-0.472-0.277-0.709-0.641-0.709-1.091
		c0-0.172,0.048-0.335,0.146-0.488c0.1-0.15,0.23-0.284,0.394-0.396c0.165-0.115,0.348-0.204,0.552-0.269
		c0.203-0.066,0.41-0.099,0.621-0.099c0.313,0,0.612,0.038,0.895,0.118c0.283,0.076,0.541,0.179,0.777,0.297
		s0.449,0.249,0.641,0.386c0.19,0.141,0.358,0.271,0.502,0.39l1.713-1.908c-0.119-0.118-0.292-0.28-0.522-0.485
		c-0.229-0.207-0.525-0.404-0.886-0.596c-0.361-0.195-0.797-0.357-1.311-0.498c-0.511-0.138-1.102-0.208-1.771-0.208
		c-0.815,0-1.519,0.109-2.117,0.329c-0.598,0.217-1.096,0.514-1.496,0.894c-0.4,0.376-0.7,0.811-0.895,1.302
		c-0.198,0.488-0.296,1.011-0.296,1.569c0,0.501,0.085,0.961,0.257,1.369c0.17,0.411,0.41,0.775,0.717,1.094
		c0.309,0.319,0.677,0.591,1.103,0.814c0.427,0.227,0.89,0.398,1.389,0.517c1.024,0.268,1.772,0.536,2.245,0.808
		c0.472,0.268,0.709,0.65,0.709,1.142c0,0.227-0.056,0.428-0.167,0.606c-0.113,0.179-0.26,0.328-0.444,0.456
		c-0.184,0.128-0.388,0.221-0.609,0.287c-0.224,0.067-0.448,0.103-0.67,0.103c-0.381,0-0.739-0.052-1.073-0.153
		c-0.335-0.096-0.644-0.227-0.925-0.386c-0.282-0.16-0.538-0.332-0.767-0.527c-0.23-0.191-0.432-0.379-0.602-0.564
		L-1642.364,198.969z M-1648.447,200.838h2.974v-13.254h-2.974V200.838z M-1658.843,200.838h2.993v-10.611h4.232v-2.643h-11.478
		v2.643h4.252V200.838z M-1672.37,193.567v-3.519h1.832c0.55,0,0.983,0.159,1.298,0.475c0.316,0.319,0.474,0.75,0.474,1.293
		c0,0.504-0.158,0.922-0.474,1.254c-0.315,0.328-0.748,0.497-1.298,0.497H-1672.37z M-1675.264,200.838h2.895v-4.869h1.654
		l2.442,4.869h3.269l-2.915-5.306c0.683-0.383,1.211-0.896,1.585-1.541c0.374-0.642,0.562-1.392,0.562-2.256
		c0-0.568-0.097-1.104-0.286-1.608c-0.191-0.504-0.48-0.944-0.868-1.32c-0.387-0.38-0.869-0.677-1.445-0.894
		c-0.579-0.22-1.249-0.329-2.009-0.329h-4.883V200.838z M-1686.367,195.472l1.633-5.006l1.595,5.006H-1686.367z M-1691.172,200.838
		h3.11l1.005-3.04h4.626l1.004,3.04h3.25l-4.804-13.254h-3.289L-1691.172,200.838z"/>
	<path clip-path="url(#SVGID_4_)" d="M-1564.284,119.16c-3.99,4.492-9.14,6.965-14.502,6.965c-1.746,0-3.509-0.268-5.235-0.794
		c-12.049-4.381-16.522-17.657-16.691-27.72c0.102-6.084,1.613-12.048,4.259-16.792c2.942-5.284,7.248-9.068,12.456-10.95
		c1.678-0.559,3.443-0.852,5.207-0.852c7.725,0,15.316,5.564,18.892,13.847C-1554.42,94.618-1556.316,110.2-1564.284,119.16
		 M-1558.045,82.05c-3.892-9.017-12.227-15.072-20.745-15.072c-1.98,0-3.957,0.325-5.888,0.97
		c-5.669,2.052-10.352,6.155-13.534,11.869c-2.815,5.047-4.419,11.368-4.52,17.794c0.169,10.73,5.002,24.934,18.074,29.653
		c1.933,0.6,3.909,0.899,5.872,0.899c5.945,0,11.628-2.712,16.006-7.641C-1554.303,110.988-1552.269,94.442-1558.045,82.05"/>
	<path clip-path="url(#SVGID_4_)" d="M-1567.113,111.722c-0.019-0.038-0.097-0.134-0.132-0.16l-0.817-0.625
		c-4.572-3.484-10.254-7.814-12.567-13.196c1.108-2.463,3.104-4.643,5.066-6.783c1.539-1.682,3.131-3.424,4.313-5.396
		c0.194-0.53,0.714-1.015,1.228-1.493c0.789-0.74,1.686-1.58,1.439-2.77c-0.031-0.153-0.137-0.284-0.277-0.338
		c-0.036-0.016-0.132-0.035-0.171-0.035c-0.09,0-0.18,0.025-0.263,0.083l-3.535,2.454c-0.089,0.067-0.153,0.163-0.181,0.28
		c-0.823,3.883-6.433,9.483-8.45,11.397c-0.037-2.498-0.126-8.946-0.174-12.989c-0.034-0.628,0.128-1.305,0.288-1.962
		c0.274-1.155,0.588-2.463-0.277-3.544c-0.097-0.122-0.274-0.195-0.43-0.16c-0.167,0.025-0.299,0.14-0.351,0.287l-2.319,6.021
		c-0.076,0.191-0.009,0.418,0.158,0.54c0.005,0.003,0.513,0.411,0.815,1.735c0.647,2.814,0.909,14.316-0.248,18.349
		c-1.093,4.078-1.984,5.6-3.408,5.816c-0.098,0.016-0.194,0.022-0.286,0.022c-1.279,0-2.115-1.35-2.125-1.366
		c-0.065-0.105-0.17-0.185-0.293-0.21c-0.107-0.019-0.262,0.003-0.371,0.08c-0.108,0.08-1.042,0.804-1.282,1.953
		c-0.265,1.295,0.098,2.955,1.557,3.551c0.298,0.07,0.613,0.108,0.934,0.108c1.032,0,1.983-0.386,2.621-0.724
		c2.302-1.48,2.921-3.698,4.154-8.12l0.044-0.163c0.28-0.992,0.589-2.103,0.956-3.331l9.09,9.297
		c-0.084,2.377,1.932,2.722,3.428,2.977c0.735,0.127,1.493,0.255,1.987,0.577c0.075,0.048,0.158,0.074,0.243,0.074
		c0.116,0,0.227-0.045,0.306-0.118c0.155-0.144,0.199-0.364,0.104-0.555L-1567.113,111.722z"/>
	<path clip-path="url(#SVGID_4_)" fill="#1D1D1B" d="M-1567.922,99.004c-0.044,0-0.131,0.016-0.17,0.032
		c-0.634,0.236-1.176,0.689-1.653,1.084l-0.03,0.026c-0.452,0.383-0.966,0.82-1.546,1.001c-0.335,0.134-0.82-0.009-0.934-0.198
		c-0.274-0.996,0.413-1.675,1.28-2.537c0.42-0.412,0.892-0.884,1.24-1.493c0.176-0.501,0.171-0.906-0.012-1.238
		c-0.287-0.536-0.918-0.686-1.472-0.82c-0.88-0.214-1.186-0.338-1.13-0.862c0.304-0.96,1.277-1.694,1.839-2.051
		c0.238-0.185,0.709-0.239,1.122-0.291c0.622-0.073,1.325-0.159,1.71-0.676c0.227-0.3,0.307-0.696,0.232-1.168
		c-0.034-0.242-0.24-0.418-0.477-0.418h-0.262c-0.186,0-0.355,0.109-0.434,0.281c-0.215,0.45-0.705,0.571-1.335,0.734
		c-0.258,0.061-0.565,0.141-0.926,0.291c-1.194,0.743-3.178,2.319-3.017,4.499c0.001,0.077,0.023,0.144,0.072,0.236
		c0.444,0.702,1.146,0.871,1.713,1.008c0.23,0.054,0.439,0.108,0.619,0.182c-0.27,0.332-0.596,0.657-0.941,0.996l-0.033,0.032
		c-0.963,0.944-2.058,2.017-1.945,3.711c0.247,1.056,1.301,1.433,2.127,1.433c1.555,0,2.666-0.989,3.679-2.017
		c0-0.003,0.063-0.083,0.08-0.128c0.014-0.035,0.072-0.057,0.26-0.099c0.25-0.054,1.013-0.227,0.815-1.148
		c-0.023-0.147-0.112-0.271-0.24-0.342C-1567.754,99.027-1567.835,99.004-1567.922,99.004"/>
</g>
<path fill="#999999" d="M-840.056,169.668c-0.011-0.025-0.019-0.052-0.025-0.068c0.196-0.159,0.394-0.305,0.574-0.469
	c0.522-0.476,0.84-1.066,0.903-1.773c0.063-0.702-0.164-1.324-0.612-1.859c-0.603-0.721-1.386-1.146-2.292-1.349
	c-0.925-0.207-1.85-0.19-2.759,0.082c-0.796,0.237-1.483,0.653-2.009,1.306c-0.418,0.518-0.637,1.109-0.594,1.778
	c0.039,0.608,0.283,1.136,0.688,1.587c0.634,0.708,1.438,1.117,2.359,1.307c0.785,0.16,1.569,0.119,2.352-0.035
	c0.061-0.012,0.107-0.006,0.161,0.029c0.544,0.36,1.09,0.717,1.635,1.074c0.005,0.003,0.009,0.01,0.015,0.01
	c0.055,0.01,0.108,0.021,0.162,0.029c0-0.053,0.016-0.109-0.002-0.154C-839.682,170.663-839.869,170.167-840.056,169.668z"/>
<path fill="#999999" d="M47.215,39.185c-0.074-0.175-0.13-0.358-0.175-0.472c1.356-1.104,2.723-2.111,3.976-3.246
	c3.617-3.293,5.813-7.385,6.255-12.281c0.439-4.861-1.135-9.168-4.242-12.874c-4.17-4.991-9.595-7.933-15.869-9.339
	c-6.404-1.433-12.805-1.319-19.102,0.568c-5.513,1.643-10.27,4.523-13.909,9.04c-2.896,3.584-4.407,7.682-4.112,12.313
	C0.31,27.109,2,30.761,4.799,33.885c4.389,4.9,9.95,7.734,16.335,9.046c5.438,1.11,10.867,0.825,16.281-0.244
	c0.423-0.081,0.748-0.04,1.117,0.203c3.767,2.497,7.546,4.965,11.318,7.438c0.037,0.021,0.062,0.068,0.104,0.068
	c0.376,0.067,0.749,0.143,1.119,0.201c0-0.364,0.11-0.757-0.013-1.066C49.805,46.07,48.507,42.633,47.215,39.185z"/>
<path fill="#666666" d="M47.215,144.685c-0.074-0.175-0.13-0.358-0.175-0.472c1.356-1.104,2.723-2.111,3.976-3.246
	c3.617-3.293,5.813-7.385,6.255-12.281c0.439-4.861-1.135-9.168-4.242-12.874c-4.17-4.991-9.595-7.933-15.869-9.339
	c-6.404-1.433-12.805-1.319-19.102,0.568c-5.513,1.643-10.27,4.523-13.909,9.04c-2.896,3.584-4.407,7.682-4.112,12.313
	c0.273,4.214,1.964,7.866,4.763,10.99c4.389,4.9,9.95,7.734,16.335,9.046c5.438,1.11,10.867,0.825,16.281-0.244
	c0.423-0.081,0.748-0.04,1.117,0.203c3.767,2.497,7.546,4.965,11.318,7.438c0.037,0.021,0.062,0.068,0.104,0.068
	c0.376,0.067,0.749,0.143,1.119,0.201c0-0.364,0.11-0.757-0.013-1.066C49.805,151.57,48.507,148.133,47.215,144.685z"/>
</svg>
