<?xml version="1.0" encoding="UTF-8" standalone="no"?>
<!-- Created with Inkscape (http://www.inkscape.org/) -->

<svg
   xmlns:dc="http://purl.org/dc/elements/1.1/"
   xmlns:cc="http://creativecommons.org/ns#"
   xmlns:rdf="http://www.w3.org/1999/02/22-rdf-syntax-ns#"
   xmlns:svg="http://www.w3.org/2000/svg"
   xmlns="http://www.w3.org/2000/svg"
   xmlns:sodipodi="http://sodipodi.sourceforge.net/DTD/sodipodi-0.dtd"
   xmlns:inkscape="http://www.inkscape.org/namespaces/inkscape"
   width="64px"
   height="64px"
   id="svg3685"
   version="1.1"
   inkscape:version="0.48.4 r9939"
   sodipodi:docname="icon-instagram.svg">
  <defs
     id="defs3687" />
  <sodipodi:namedview
     id="base"
     pagecolor="#ffffff"
     bordercolor="#666666"
     borderopacity="1.0"
     inkscape:pageopacity="0.0"
     inkscape:pageshadow="2"
     inkscape:zoom="5.5"
     inkscape:cx="32"
     inkscape:cy="32"
     inkscape:current-layer="layer1"
     showgrid="true"
     inkscape:document-units="px"
     inkscape:grid-bbox="true"
     inkscape:window-width="960"
     inkscape:window-height="1028"
     inkscape:window-x="2880"
     inkscape:window-y="24"
     inkscape:window-maximized="0" />
  <metadata
     id="metadata3690">
    <rdf:RDF>
      <cc:Work
         rdf:about="">
        <dc:format>image/svg+xml</dc:format>
        <dc:type
           rdf:resource="http://purl.org/dc/dcmitype/StillImage" />
        <dc:title></dc:title>
      </cc:Work>
    </rdf:RDF>
  </metadata>
  <g
     id="layer1"
     inkscape:label="Layer 1"
     inkscape:groupmode="layer">
    <g
       id="g5407"
       transform="matrix(2.9464414,0,0,2.954944,-84.786224,-68.914449)">
      <path
         id="path62"
         style="fill:#ededed;fill-opacity:1;fill-rule:nonzero;stroke:none"
         d="m 50.471989,34.181818 c 0,5.98375 -4.85125,10.835 -10.835,10.835 -5.985,0 -10.83625,-4.85125 -10.83625,-10.835 0,-5.98375 4.85125,-10.835 10.83625,-10.835 5.98375,0 10.835,4.85125 10.835,10.835"
         inkscape:connector-curvature="0" />
      <path
         id="path478"
         style="fill:#999999;fill-opacity:1;fill-rule:nonzero;stroke:none"
         d="m 40.981609,36.103818 c -0.03875,-0.10625 -0.145,-0.14875 -0.265,-0.12125 -0.1175,0.02625 -0.18125,0.10125 -0.18125,0.21375 0,0.5525 0.0038,1.105 -0.0025,1.65875 -0.0013,0.1025 0.03875,0.1625 0.12,0.20375 0.03875,0.02 0.08125,0.03625 0.12375,0.04375 0.12,0.02375 0.2175,-0.04625 0.23375,-0.1675 0.0075,-0.0575 0.01125,-0.11375 0.0125,-0.17125 0.0012,-0.23375 0,-0.4675 0,-0.70125 0,-0.24375 0.0038,-0.4875 -0.0013,-0.73125 -0.0012,-0.07625 -0.01375,-0.15625 -0.04,-0.2275"
         inkscape:connector-curvature="0" />
      <path
         id="path482"
         style="fill:#999999;fill-opacity:1;fill-rule:nonzero;stroke:none"
         d="m 37.414989,30.909698 c 0.06875,0.2175 0.10375,0.435 0.09875,0.66375 -0.0087,0.395 -0.0012,0.79 -0.0038,1.185 0,0.0625 0.01625,0.08625 0.0825,0.085 0.15625,-0.005 0.3125,-0.0063 0.4675,0 0.08125,0.0037 0.1,-0.0225 0.1,-0.1 -0.0038,-0.5025 -0.0025,-1.00375 -0.0013,-1.505 0,-0.05125 0.0088,-0.10375 0.0225,-0.1525 0.22375,-0.73 0.45,-1.46125 0.675,-2.19125 0.0087,-0.02875 0.01375,-0.05875 0.02375,-0.095 -0.0375,-0.0025 -0.0625,-0.005 -0.08875,-0.005 -0.16125,-0.0012 -0.32125,0.0012 -0.4825,-0.0025 -0.06125,-0.0012 -0.085,0.0225 -0.09875,0.08 -0.1125,0.47625 -0.2275,0.9525 -0.34125,1.42875 -0.0075,0.03125 -0.0175,0.06375 -0.02625,0.09625 -0.0063,-0.0012 -0.01375,-0.0025 -0.02,-0.0025 -0.0125,-0.0475 -0.025,-0.09375 -0.0375,-0.14 -0.115,-0.4625 -0.23125,-0.925 -0.345,-1.3875 -0.01375,-0.05375 -0.0375,-0.07625 -0.09625,-0.075 -0.10875,0.005 -0.21875,0.0013 -0.3275,0.0013 l -0.2425,0 c 0.01,0.0425 0.015,0.06875 0.0225,0.095 0.205,0.67375 0.4075,1.34875 0.61875,2.02125"
         inkscape:connector-curvature="0" />
      <path
         id="path486"
         style="fill:#999999;fill-opacity:1;fill-rule:nonzero;stroke:none"
         d="m 39.422489,30.529818 c 0.0012,-0.1325 0.08125,-0.21375 0.2125,-0.215 0.145,-0.0012 0.23125,0.075 0.2325,0.21125 0.0025,0.2725 0.0012,0.545 0.0012,0.8175 0,0.265 0.0013,0.53 -0.0012,0.795 -0.0012,0.16375 -0.08375,0.24375 -0.23875,0.24125 -0.12875,-0.0025 -0.20625,-0.085 -0.20625,-0.23 -0.0013,-0.4175 0,-0.83625 0,-1.25375 0,-0.1225 0,-0.24375 0,-0.36625 m -0.5875,1.61 c 0,0.15875 0.03875,0.30875 0.1275,0.44125 0.15375,0.23375 0.38,0.33 0.65375,0.33875 0.5375,0.01625 0.8525,-0.33875 0.8375,-0.83125 -0.0088,-0.24875 -0.0013,-0.4975 -0.0013,-0.7475 0,-0.2775 0.0038,-0.555 -0.0013,-0.8325 -0.0061,-0.28875 -0.14115,-0.505 -0.3949,-0.64125 -0.18875,-0.1025 -0.39125,-0.1075 -0.59875,-0.075 -0.37,0.05625 -0.6225,0.34625 -0.6225,0.72 -0.0013,0.5425 -0.0013,1.085 0,1.6275"
         inkscape:connector-curvature="0" />
      <path
         id="path490"
         style="fill:#999999;fill-opacity:1;fill-rule:nonzero;stroke:none"
         d="m 40.955739,32.661578 c 0.04125,0.1225 0.13125,0.1975 0.26,0.21875 0.18625,0.03 0.3475,-0.03625 0.49375,-0.14375 0.0725,-0.0525 0.1375,-0.11625 0.2175,-0.185 0,0.08375 0.0012,0.15375 0,0.22375 -0.0013,0.05 0.0175,0.06875 0.06875,0.0675 0.13,-0.0037 0.26,-0.0012 0.39,-0.0012 0.1175,0 0.11875,0 0.11875,-0.1175 0,-0.91625 0,-1.83375 0,-2.75 0,-0.01875 -0.0012,-0.0375 0,-0.055 0.0025,-0.05 -0.02,-0.0675 -0.07,-0.0675 -0.135,0.0025 -0.27,0.0012 -0.405,0.0012 -0.10625,0 -0.10625,0 -0.10625,0.1075 0,0.6725 -0.0038,1.345 0.0038,2.0175 0.0012,0.12625 -0.0425,0.2075 -0.14125,0.27125 -0.01875,0.0125 -0.0375,0.02625 -0.0575,0.03875 -0.15,0.09 -0.2475,0.035 -0.24875,-0.14 -0.0013,-0.24125 -0.0013,-0.4825 -0.0013,-0.72375 0,-0.49375 -0.0013,-0.9875 0.0025,-1.48125 0,-0.07125 -0.02125,-0.095 -0.09375,-0.09125 -0.1325,0.005 -0.265,0.0038 -0.3975,0 -0.06375,-0.0025 -0.08375,0.0175 -0.0825,0.0825 0.0013,0.83125 0,1.6625 0.0025,2.49375 0.0012,0.0775 0.02125,0.15875 0.04625,0.23375"
         inkscape:connector-curvature="0" />
      <path
         id="path494"
         style="fill:#999999;fill-opacity:1;fill-rule:nonzero;stroke:none"
         d="m 42.805989,36.658818 c 0.0625,0 0.125,-0.0025 0.18625,0.0013 0.055,0.0025 0.075,-0.0225 0.0725,-0.075 -0.0038,-0.12375 -0.0012,-0.24875 -0.0125,-0.3725 -0.0125,-0.1475 -0.10625,-0.23 -0.24375,-0.23 -0.135,-0.0013 -0.23125,0.075 -0.24375,0.21125 -0.0125,0.13375 -0.01,0.26875 -0.01375,0.40375 -0.0012,0.0462 0.02375,0.0637 0.06875,0.0612 0.06125,-0.0012 0.12375,0 0.18625,0"
         inkscape:connector-curvature="0" />
      <path
         id="path498"
         style="fill:#999999;fill-opacity:1;fill-rule:nonzero;stroke:none"
         d="m 42.562359,37.835818 c 0.0087,0.20625 0.155,0.305 0.34625,0.2425 0.12,-0.03875 0.135,-0.14 0.145,-0.2425 0.0088,-0.0975 0.01125,-0.19625 0.01125,-0.295 0,-0.055 0.01875,-0.0725 0.0725,-0.07125 0.135,0.0038 0.27,0 0.405,0.0038 0.0225,0 0.06125,0.0275 0.06125,0.0425 0.0062,0.215 0.0087,0.43125 -0.0725,0.63625 -0.1075,0.2675 -0.3125,0.4 -0.58875,0.42875 -0.105,0.01125 -0.215,0.0125 -0.3175,-0.0062 -0.32875,-0.06 -0.56125,-0.30375 -0.595,-0.65125 -0.02625,-0.25875 -0.01625,-0.5225 -0.02125,-0.78375 0,-0.0375 0,-0.07375 0,-0.11 0,-0.23875 -0.0025,-0.4775 0.0013,-0.71625 0.0075,-0.69625 0.6775,-0.99 1.215,-0.74 0.22375,0.105 0.34,0.30625 0.36,0.54 0.025,0.30625 0.01625,0.61625 0.02125,0.925 0.0025,0.0625 -0.04375,0.0525 -0.08,0.0525 -0.28625,0.0013 -0.57125,0 -0.8575,0 -0.1175,0.0013 -0.11875,0.0013 -0.1175,0.115 0.0025,0.21 0.0025,0.42 0.01125,0.63 m -1.07375,0.45875 c -0.0775,0.20375 -0.28625,0.27375 -0.48625,0.25125 -0.16625,-0.0175 -0.29875,-0.09375 -0.41,-0.21625 -0.01125,-0.0125 -0.02625,-0.02125 -0.05625,-0.04625 0,0.06875 -0.0025,0.115 0,0.16125 0.0025,0.045 -0.01375,0.06625 -0.06125,0.06625 -0.1375,-0.0025 -0.27625,-0.0025 -0.41375,0 -0.04625,0 -0.0675,-0.0175 -0.0625,-0.065 0.0013,-0.0125 0,-0.02625 0,-0.03875 0,-1.2675 0.0013,-2.535 -0.0013,-3.8025 0,-0.07875 0.02,-0.1025 0.09875,-0.09875 0.1225,0.0062 0.245,0.005 0.36625,0.0012 0.06,-0.0025 0.075,0.02 0.07375,0.07625 -0.0012,0.36875 0,0.7375 0,1.10625 l 0,0.11625 c 0.035,-0.03125 0.055,-0.0475 0.0725,-0.06625 0.09,-0.0925 0.19125,-0.16875 0.32,-0.2 0.255,-0.06125 0.47875,0.055 0.57125,0.30625 0.035,0.09875 0.06,0.20625 0.06,0.31 0.0063,0.595 0.0075,1.19 0.0013,1.785 -0.0013,0.11875 -0.03,0.2425 -0.0725,0.35375 m -2.045,0.14625 c 0,0.04875 -0.01375,0.07125 -0.06625,0.07 -0.135,-0.0025 -0.27,-0.0025 -0.405,0 -0.0525,0.0013 -0.0675,-0.02125 -0.065,-0.07 0.0025,-0.07875 0,-0.1575 0,-0.2375 -0.01,-0.0062 -0.02125,-0.0125 -0.03125,-0.02 -0.01875,0.0275 -0.035,0.0575 -0.05625,0.08125 -0.12,0.12625 -0.2575,0.2275 -0.42875,0.27125 -0.275,0.0725 -0.475,-0.0725 -0.49625,-0.355 -0.0037,-0.045 -0.005,-0.08875 -0.005,-0.1325 0,-0.7925 0,-1.585 0,-2.37625 0,-0.1075 0,-0.1075 0.10625,-0.1075 0.10875,0 0.21875,0.0038 0.3275,-0.0013 0.07,-0.0038 0.0925,0.0175 0.0925,0.09125 -0.0038,0.70875 -0.0025,1.4175 -0.0012,2.12625 0,0.04875 0.0025,0.09875 0.01375,0.14625 0.02125,0.0875 0.08,0.12625 0.1675,0.1075 0.13,-0.025 0.22125,-0.11 0.2975,-0.21 0.01625,-0.02125 0.01375,-0.06 0.01375,-0.09 0.0013,-0.69125 0.0025,-1.38125 -0.0012,-2.0725 -0.0013,-0.08125 0.0225,-0.1025 0.1,-0.09875 0.1225,0.005 0.245,0.0025 0.36625,0 0.055,-0.0013 0.07125,0.01875 0.07125,0.0725 -0.0013,0.935 -0.0013,1.87 0,2.805 m -1.65135,-3.375 c -0.15625,-0.0038 -0.3125,0.0025 -0.4675,-0.0025 -0.075,-0.0025 -0.0975,0.0225 -0.0975,0.0975 0.0025,1.08375 0.0012,2.16625 0.0037,3.25 0,0.08 -0.02,0.105 -0.1,0.10125 -0.13375,-0.0062 -0.27,-0.0075 -0.405,0 -0.0825,0.0038 -0.0975,-0.0275 -0.0975,-0.1025 0.0038,-0.54375 0.0013,-1.08625 0.0013,-1.63 0,-0.5375 -0.0013,-1.075 0.0025,-1.61375 0,-0.0775 -0.0225,-0.105 -0.10125,-0.1025 -0.15625,0.005 -0.31125,0 -0.4675,0.0025 -0.0575,0.0013 -0.0775,-0.02 -0.07625,-0.0775 0.0025,-0.1375 0.0012,-0.275 0,-0.4125 -0.0012,-0.05 0.015,-0.06875 0.0675,-0.06875 0.58375,0.0013 1.16875,0.0013 1.75375,0 0.04875,0 0.0625,0.01875 0.06125,0.06375 -0.0012,0.13875 -0.0025,0.27625 0.0012,0.41375 0.0013,0.06125 -0.0175,0.0825 -0.07875,0.08125 m 6.60125,0.40125 c 0,-0.12375 -0.01125,-0.24875 -0.03,-0.37125 -0.13875,-0.8725 -0.95125,-1.56375 -1.83625,-1.56375 -0.96375,0 -1.9275,0 -2.89125,0 -0.96,0 -1.92125,-0.0025 -2.8825,0.0025 -0.14625,0.0013 -0.29625,0.02125 -0.4375,0.0575 -0.865,0.22375 -1.44,0.975 -1.44,1.86875 0,0.74 -0.0012,1.48125 0.0025,2.22125 0,0.11625 0.0125,0.23375 0.035,0.3475 0.17625,0.87375 0.93,1.54125 1.9,1.54125 1.8825,0 3.76625,0 5.64875,-0.0012 0.11875,0 0.24,-0.01 0.35625,-0.03 0.94375,-0.17 1.58625,-0.99375 1.57875,-1.89 -0.0075,-0.7275 0,-1.455 -0.0038,-2.1825"
         inkscape:connector-curvature="0" />
    </g>
  </g>
</svg>
